<?xml version="1.0" encoding="utf-8"  standalone="no"?>
<!DOCTYPE svg PUBLIC "-//W3C//DTD SVG 1.1//EN"
 "http://www.w3.org/Graphics/SVG/1.1/DTD/svg11.dtd">
<svg 
 width="600" height="480"
 viewBox="0 0 600 480"
 xmlns="http://www.w3.org/2000/svg"
 xmlns:xlink="http://www.w3.org/1999/xlink"
>

<title>Gnuplot</title>
<desc>Produced by GNUPLOT 5.0 patchlevel 3 </desc>

<g id="gnuplot_canvas">

<rect x="0" y="0" width="600" height="480" fill="none"/>
<defs>

	<circle id='gpDot' r='0.5' stroke-width='0.5'/>
	<path id='gpPt0' stroke-width='0.222' stroke='currentColor' d='M-1,0 h2 M0,-1 v2'/>
	<path id='gpPt1' stroke-width='0.222' stroke='currentColor' d='M-1,-1 L1,1 M1,-1 L-1,1'/>
	<path id='gpPt2' stroke-width='0.222' stroke='currentColor' d='M-1,0 L1,0 M0,-1 L0,1 M-1,-1 L1,1 M-1,1 L1,-1'/>
	<rect id='gpPt3' stroke-width='0.222' stroke='currentColor' x='-1' y='-1' width='2' height='2'/>
	<rect id='gpPt4' stroke-width='0.222' stroke='currentColor' fill='currentColor' x='-1' y='-1' width='2' height='2'/>
	<circle id='gpPt5' stroke-width='0.222' stroke='currentColor' cx='0' cy='0' r='1'/>
	<use xlink:href='#gpPt5' id='gpPt6' fill='currentColor' stroke='none'/>
	<path id='gpPt7' stroke-width='0.222' stroke='currentColor' d='M0,-1.33 L-1.33,0.67 L1.33,0.67 z'/>
	<use xlink:href='#gpPt7' id='gpPt8' fill='currentColor' stroke='none'/>
	<use xlink:href='#gpPt7' id='gpPt9' stroke='currentColor' transform='rotate(180)'/>
	<use xlink:href='#gpPt9' id='gpPt10' fill='currentColor' stroke='none'/>
	<use xlink:href='#gpPt3' id='gpPt11' stroke='currentColor' transform='rotate(45)'/>
	<use xlink:href='#gpPt11' id='gpPt12' fill='currentColor' stroke='none'/>
	<path id='gpPt13' stroke-width='0.222' stroke='currentColor' d='M0,1.330 L1.265,0.411 L0.782,-1.067 L-0.782,-1.076 L-1.265,0.411 z'/>
	<use xlink:href='#gpPt13' id='gpPt14' fill='currentColor' stroke='none'/>
	<filter id='textbox' filterUnits='objectBoundingBox' x='0' y='0' height='1' width='1'>
	  <feFlood flood-color='white' flood-opacity='1' result='bgnd'/>
	  <feComposite in='SourceGraphic' in2='bgnd' operator='atop'/>
	</filter>
	<filter id='greybox' filterUnits='objectBoundingBox' x='0' y='0' height='1' width='1'>
	  <feFlood flood-color='lightgrey' flood-opacity='1' result='grey'/>
	  <feComposite in='SourceGraphic' in2='grey' operator='atop'/>
	</filter>
</defs>
<g fill="none" color="white" stroke="currentColor" stroke-width="1.00" stroke-linecap="butt" stroke-linejoin="miter">
</g>
<g fill="none" color="black" stroke="currentColor" stroke-width="1.00" stroke-linecap="butt" stroke-linejoin="miter">
</g>
<g fill="none" color="black" stroke="black" stroke-width="0.50" stroke-linecap="butt" stroke-linejoin="miter">
</g>
<g fill="none" color="gray" stroke="currentColor" stroke-width="0.50" stroke-linecap="butt" stroke-linejoin="miter">
	<path stroke='gray' stroke-dasharray='2,4' class="gridline"  d='M71.9,396.1 L575.0,396.1  '/></g>
<g fill="none" color="gray" stroke="gray" stroke-width="1.00" stroke-linecap="butt" stroke-linejoin="miter">
</g>
<g fill="none" color="black" stroke="currentColor" stroke-width="1.00" stroke-linecap="butt" stroke-linejoin="miter">
	<path stroke='black'  d='M71.9,396.1 L80.9,396.1 M575.0,396.1 L566.0,396.1  '/>	<g transform="translate(63.6,400.6)" stroke="none" fill="black" font-family="Arial" font-size="12.00"  text-anchor="end">
		<text><tspan font-family="Arial" >-1</tspan></text>
	</g>
</g>
<g fill="none" color="black" stroke="currentColor" stroke-width="1.00" stroke-linecap="butt" stroke-linejoin="miter">
</g>
<g fill="none" color="black" stroke="black" stroke-width="0.50" stroke-linecap="butt" stroke-linejoin="miter">
</g>
<g fill="none" color="gray" stroke="currentColor" stroke-width="0.50" stroke-linecap="butt" stroke-linejoin="miter">
	<path stroke='gray' stroke-dasharray='2,4' class="gridline"  d='M71.9,312.7 L575.0,312.7  '/></g>
<g fill="none" color="gray" stroke="gray" stroke-width="1.00" stroke-linecap="butt" stroke-linejoin="miter">
</g>
<g fill="none" color="black" stroke="currentColor" stroke-width="1.00" stroke-linecap="butt" stroke-linejoin="miter">
	<path stroke='black'  d='M71.9,312.7 L80.9,312.7 M575.0,312.7 L566.0,312.7  '/>	<g transform="translate(63.6,317.2)" stroke="none" fill="black" font-family="Arial" font-size="12.00"  text-anchor="end">
		<text><tspan font-family="Arial" >-0.5</tspan></text>
	</g>
</g>
<g fill="none" color="black" stroke="currentColor" stroke-width="1.00" stroke-linecap="butt" stroke-linejoin="miter">
</g>
<g fill="none" color="black" stroke="black" stroke-width="0.50" stroke-linecap="butt" stroke-linejoin="miter">
</g>
<g fill="none" color="gray" stroke="currentColor" stroke-width="0.50" stroke-linecap="butt" stroke-linejoin="miter">
	<path stroke='gray' stroke-dasharray='2,4' class="gridline"  d='M71.9,229.2 L575.0,229.2  '/></g>
<g fill="none" color="gray" stroke="gray" stroke-width="1.00" stroke-linecap="butt" stroke-linejoin="miter">
</g>
<g fill="none" color="black" stroke="currentColor" stroke-width="1.00" stroke-linecap="butt" stroke-linejoin="miter">
	<path stroke='black'  d='M71.9,229.2 L80.9,229.2 M575.0,229.2 L566.0,229.2  '/>	<g transform="translate(63.6,233.7)" stroke="none" fill="black" font-family="Arial" font-size="12.00"  text-anchor="end">
		<text><tspan font-family="Arial" > 0</tspan></text>
	</g>
</g>
<g fill="none" color="black" stroke="currentColor" stroke-width="1.00" stroke-linecap="butt" stroke-linejoin="miter">
</g>
<g fill="none" color="black" stroke="black" stroke-width="0.50" stroke-linecap="butt" stroke-linejoin="miter">
</g>
<g fill="none" color="gray" stroke="currentColor" stroke-width="0.50" stroke-linecap="butt" stroke-linejoin="miter">
	<path stroke='gray' stroke-dasharray='2,4' class="gridline"  d='M71.9,145.8 L575.0,145.8  '/></g>
<g fill="none" color="gray" stroke="gray" stroke-width="1.00" stroke-linecap="butt" stroke-linejoin="miter">
</g>
<g fill="none" color="black" stroke="currentColor" stroke-width="1.00" stroke-linecap="butt" stroke-linejoin="miter">
	<path stroke='black'  d='M71.9,145.8 L80.9,145.8 M575.0,145.8 L566.0,145.8  '/>	<g transform="translate(63.6,150.3)" stroke="none" fill="black" font-family="Arial" font-size="12.00"  text-anchor="end">
		<text><tspan font-family="Arial" > 0.5</tspan></text>
	</g>
</g>
<g fill="none" color="black" stroke="currentColor" stroke-width="1.00" stroke-linecap="butt" stroke-linejoin="miter">
</g>
<g fill="none" color="black" stroke="black" stroke-width="0.50" stroke-linecap="butt" stroke-linejoin="miter">
</g>
<g fill="none" color="gray" stroke="currentColor" stroke-width="0.50" stroke-linecap="butt" stroke-linejoin="miter">
	<path stroke='gray' stroke-dasharray='2,4' class="gridline"  d='M71.9,62.4 L575.0,62.4  '/></g>
<g fill="none" color="gray" stroke="gray" stroke-width="1.00" stroke-linecap="butt" stroke-linejoin="miter">
</g>
<g fill="none" color="black" stroke="currentColor" stroke-width="1.00" stroke-linecap="butt" stroke-linejoin="miter">
	<path stroke='black'  d='M71.9,62.4 L80.9,62.4 M575.0,62.4 L566.0,62.4  '/>	<g transform="translate(63.6,66.9)" stroke="none" fill="black" font-family="Arial" font-size="12.00"  text-anchor="end">
		<text><tspan font-family="Arial" > 1</tspan></text>
	</g>
</g>
<g fill="none" color="black" stroke="currentColor" stroke-width="1.00" stroke-linecap="butt" stroke-linejoin="miter">
</g>
<g fill="none" color="black" stroke="black" stroke-width="0.50" stroke-linecap="butt" stroke-linejoin="miter">
</g>
<g fill="none" color="gray" stroke="currentColor" stroke-width="0.50" stroke-linecap="butt" stroke-linejoin="miter">
	<path stroke='gray' stroke-dasharray='2,4' class="gridline"  d='M90.5,404.4 L90.5,54.1  '/></g>
<g fill="none" color="gray" stroke="gray" stroke-width="1.00" stroke-linecap="butt" stroke-linejoin="miter">
</g>
<g fill="none" color="black" stroke="currentColor" stroke-width="1.00" stroke-linecap="butt" stroke-linejoin="miter">
	<path stroke='black'  d='M90.5,404.4 L90.5,395.4 M90.5,54.1 L90.5,63.1  '/>	<g transform="translate(90.5,426.9)" stroke="none" fill="black" font-family="Arial" font-size="12.00"  text-anchor="middle">
		<text><tspan font-family="Arial" > 0</tspan></text>
	</g>
</g>
<g fill="none" color="black" stroke="currentColor" stroke-width="1.00" stroke-linecap="butt" stroke-linejoin="miter">
</g>
<g fill="none" color="black" stroke="black" stroke-width="0.50" stroke-linecap="butt" stroke-linejoin="miter">
</g>
<g fill="none" color="gray" stroke="currentColor" stroke-width="0.50" stroke-linecap="butt" stroke-linejoin="miter">
	<path stroke='gray' stroke-dasharray='2,4' class="gridline"  d='M164.7,404.4 L164.7,54.1  '/></g>
<g fill="none" color="gray" stroke="gray" stroke-width="1.00" stroke-linecap="butt" stroke-linejoin="miter">
</g>
<g fill="none" color="black" stroke="currentColor" stroke-width="1.00" stroke-linecap="butt" stroke-linejoin="miter">
	<path stroke='black'  d='M164.7,404.4 L164.7,395.4 M164.7,54.1 L164.7,63.1  '/>	<g transform="translate(164.7,426.9)" stroke="none" fill="black" font-family="Arial" font-size="12.00"  text-anchor="middle">
		<text><tspan font-family="Arial" > 2</tspan></text>
	</g>
</g>
<g fill="none" color="black" stroke="currentColor" stroke-width="1.00" stroke-linecap="butt" stroke-linejoin="miter">
</g>
<g fill="none" color="black" stroke="black" stroke-width="0.50" stroke-linecap="butt" stroke-linejoin="miter">
</g>
<g fill="none" color="gray" stroke="currentColor" stroke-width="0.50" stroke-linecap="butt" stroke-linejoin="miter">
	<path stroke='gray' stroke-dasharray='2,4' class="gridline"  d='M238.9,404.4 L238.9,54.1  '/></g>
<g fill="none" color="gray" stroke="gray" stroke-width="1.00" stroke-linecap="butt" stroke-linejoin="miter">
</g>
<g fill="none" color="black" stroke="currentColor" stroke-width="1.00" stroke-linecap="butt" stroke-linejoin="miter">
	<path stroke='black'  d='M238.9,404.4 L238.9,395.4 M238.9,54.1 L238.9,63.1  '/>	<g transform="translate(238.9,426.9)" stroke="none" fill="black" font-family="Arial" font-size="12.00"  text-anchor="middle">
		<text><tspan font-family="Arial" > 4</tspan></text>
	</g>
</g>
<g fill="none" color="black" stroke="currentColor" stroke-width="1.00" stroke-linecap="butt" stroke-linejoin="miter">
</g>
<g fill="none" color="black" stroke="black" stroke-width="0.50" stroke-linecap="butt" stroke-linejoin="miter">
</g>
<g fill="none" color="gray" stroke="currentColor" stroke-width="0.50" stroke-linecap="butt" stroke-linejoin="miter">
	<path stroke='gray' stroke-dasharray='2,4' class="gridline"  d='M313.1,404.4 L313.1,54.1  '/></g>
<g fill="none" color="gray" stroke="gray" stroke-width="1.00" stroke-linecap="butt" stroke-linejoin="miter">
</g>
<g fill="none" color="black" stroke="currentColor" stroke-width="1.00" stroke-linecap="butt" stroke-linejoin="miter">
	<path stroke='black'  d='M313.1,404.4 L313.1,395.4 M313.1,54.1 L313.1,63.1  '/>	<g transform="translate(313.1,426.9)" stroke="none" fill="black" font-family="Arial" font-size="12.00"  text-anchor="middle">
		<text><tspan font-family="Arial" > 6</tspan></text>
	</g>
</g>
<g fill="none" color="black" stroke="currentColor" stroke-width="1.00" stroke-linecap="butt" stroke-linejoin="miter">
</g>
<g fill="none" color="black" stroke="black" stroke-width="0.50" stroke-linecap="butt" stroke-linejoin="miter">
</g>
<g fill="none" color="gray" stroke="currentColor" stroke-width="0.50" stroke-linecap="butt" stroke-linejoin="miter">
	<path stroke='gray' stroke-dasharray='2,4' class="gridline"  d='M387.3,404.4 L387.3,54.1  '/></g>
<g fill="none" color="gray" stroke="gray" stroke-width="1.00" stroke-linecap="butt" stroke-linejoin="miter">
</g>
<g fill="none" color="black" stroke="currentColor" stroke-width="1.00" stroke-linecap="butt" stroke-linejoin="miter">
	<path stroke='black'  d='M387.3,404.4 L387.3,395.4 M387.3,54.1 L387.3,63.1  '/>	<g transform="translate(387.3,426.9)" stroke="none" fill="black" font-family="Arial" font-size="12.00"  text-anchor="middle">
		<text><tspan font-family="Arial" > 8</tspan></text>
	</g>
</g>
<g fill="none" color="black" stroke="currentColor" stroke-width="1.00" stroke-linecap="butt" stroke-linejoin="miter">
</g>
<g fill="none" color="black" stroke="black" stroke-width="0.50" stroke-linecap="butt" stroke-linejoin="miter">
</g>
<g fill="none" color="gray" stroke="currentColor" stroke-width="0.50" stroke-linecap="butt" stroke-linejoin="miter">
	<path stroke='gray' stroke-dasharray='2,4' class="gridline"  d='M461.5,404.4 L461.5,54.1  '/></g>
<g fill="none" color="gray" stroke="gray" stroke-width="1.00" stroke-linecap="butt" stroke-linejoin="miter">
</g>
<g fill="none" color="black" stroke="currentColor" stroke-width="1.00" stroke-linecap="butt" stroke-linejoin="miter">
	<path stroke='black'  d='M461.5,404.4 L461.5,395.4 M461.5,54.1 L461.5,63.1  '/>	<g transform="translate(461.5,426.9)" stroke="none" fill="black" font-family="Arial" font-size="12.00"  text-anchor="middle">
		<text><tspan font-family="Arial" > 10</tspan></text>
	</g>
</g>
<g fill="none" color="black" stroke="currentColor" stroke-width="1.00" stroke-linecap="butt" stroke-linejoin="miter">
</g>
<g fill="none" color="black" stroke="black" stroke-width="0.50" stroke-linecap="butt" stroke-linejoin="miter">
</g>
<g fill="none" color="gray" stroke="currentColor" stroke-width="0.50" stroke-linecap="butt" stroke-linejoin="miter">
	<path stroke='gray' stroke-dasharray='2,4' class="gridline"  d='M535.7,404.4 L535.7,54.1  '/></g>
<g fill="none" color="gray" stroke="gray" stroke-width="1.00" stroke-linecap="butt" stroke-linejoin="miter">
</g>
<g fill="none" color="black" stroke="currentColor" stroke-width="1.00" stroke-linecap="butt" stroke-linejoin="miter">
	<path stroke='black'  d='M535.7,404.4 L535.7,395.4 M535.7,54.1 L535.7,63.1  '/>	<g transform="translate(535.7,426.9)" stroke="none" fill="black" font-family="Arial" font-size="12.00"  text-anchor="middle">
		<text><tspan font-family="Arial" > 12</tspan></text>
	</g>
</g>
<g fill="none" color="black" stroke="currentColor" stroke-width="1.00" stroke-linecap="butt" stroke-linejoin="miter">
</g>
<g fill="none" color="black" stroke="currentColor" stroke-width="1.00" stroke-linecap="butt" stroke-linejoin="miter">
	<path stroke='black'  d='M71.9,54.1 L71.9,404.4 L575.0,404.4 L575.0,54.1 L71.9,54.1 Z  '/></g>
<g fill="none" color="black" stroke="currentColor" stroke-width="1.00" stroke-linecap="butt" stroke-linejoin="miter">
	<g transform="translate(17.6,229.3) rotate(270)" stroke="none" fill="black" font-family="Arial" font-size="12.00"  text-anchor="middle">
		<text><tspan font-family="Arial" >cos(x)</tspan></text>
	</g>
</g>
<g fill="none" color="black" stroke="currentColor" stroke-width="1.00" stroke-linecap="butt" stroke-linejoin="miter">
	<g transform="translate(323.4,453.9)" stroke="none" fill="black" font-family="Arial" font-size="12.00"  text-anchor="middle">
		<text><tspan font-family="Arial" >x</tspan></text>
	</g>
</g>
<g fill="none" color="black" stroke="currentColor" stroke-width="1.00" stroke-linecap="butt" stroke-linejoin="miter">
	<g transform="translate(323.4,31.6)" stroke="none" fill="black" font-family="Arial" font-size="12.00"  text-anchor="middle">
		<text><tspan font-family="Arial" >Cubic interpolation between data points from cos</tspan></text>
	</g>
</g>
	<g id="gnuplot_plot_1" ><title>Interpolated</title>
<g fill="none" color="black" stroke="currentColor" stroke-width="1.00" stroke-linecap="butt" stroke-linejoin="miter">
	<g transform="translate(264.6,466.5)" stroke="none" fill="black" font-family="Arial" font-size="12.00"  text-anchor="end">
		<text><tspan font-family="Arial" >Interpolated</tspan></text>
	</g>
</g>
<g fill="none" color="black" stroke="currentColor" stroke-width="1.00" stroke-linecap="butt" stroke-linejoin="miter">
	<path stroke='rgb(255,   0,   0)'  d='M272.9,462.0 L315.1,462.0 M90.5,62.4 L90.9,62.9 L91.4,63.3 L91.9,63.7 L92.3,64.1 L92.8,64.5
		L93.3,65.0 L93.7,65.4 L94.2,65.8 L94.7,66.2 L95.1,66.7 L95.6,67.1 L96.1,67.6 L96.5,68.0
		L97.0,68.5 L97.5,69.0 L97.9,69.5 L98.4,70.0 L98.9,70.5 L99.3,71.0 L99.8,71.5 L100.3,72.0
		L100.7,72.6 L101.2,73.1 L101.7,73.7 L102.1,74.3 L102.6,74.9 L103.1,75.5 L103.5,76.1 L104.0,76.7
		L104.5,77.4 L104.9,78.1 L105.4,78.7 L105.9,79.4 L106.3,80.2 L106.8,80.9 L107.3,81.7 L107.7,82.5
		L108.2,83.3 L108.7,84.1 L109.1,84.9 L109.6,85.8 L110.1,86.7 L110.5,87.6 L111.0,88.5 L111.5,89.5
		L111.9,90.5 L112.4,91.5 L112.9,92.5 L113.3,93.6 L113.8,94.7 L114.3,95.8 L114.7,96.9 L115.2,98.1
		L115.7,99.3 L116.1,100.5 L116.6,101.8 L117.1,103.1 L117.5,104.4 L118.0,105.7 L118.5,107.1 L118.9,108.5
		L119.4,109.9 L119.9,111.4 L120.3,112.8 L120.8,114.3 L121.3,115.8 L121.7,117.4 L122.2,118.9 L122.7,120.5
		L123.1,122.1 L123.6,123.7 L124.1,125.3 L124.5,127.0 L125.0,128.7 L125.5,130.4 L125.9,132.1 L126.4,133.8
		L126.9,135.6 L127.3,137.4 L127.8,139.2 L128.3,141.0 L128.7,142.8 L129.2,144.6 L129.7,146.5 L130.1,148.3
		L130.6,150.2 L131.1,152.1 L131.5,154.0 L132.0,155.9 L132.5,157.9 L132.9,159.8 L133.4,161.8 L133.9,163.7
		L134.3,165.7 L134.8,167.7 L135.3,169.7 L135.7,171.7 L136.2,173.7 L136.7,175.7 L137.1,177.7 L137.6,179.8
		L138.1,181.8 L138.5,183.9 L139.0,185.9 L139.5,188.0 L139.9,190.0 L140.4,192.1 L140.9,194.2 L141.3,196.3
		L141.8,198.3 L142.3,200.4 L142.7,202.5 L143.2,204.6 L143.7,206.7 L144.1,208.8 L144.6,210.9 L145.1,213.0
		L145.5,215.1 L146.0,217.2 L146.5,219.3 L146.9,221.4 L147.4,223.5 L147.9,225.6 L148.3,227.7 L148.8,229.8
		L149.3,231.9 L149.7,234.0 L150.2,236.1 L150.7,238.2 L151.1,240.2 L151.6,242.3 L152.1,244.4 L152.5,246.5
		L153.0,248.6 L153.5,250.7 L153.9,252.7 L154.4,254.8 L154.9,256.9 L155.3,258.9 L155.8,261.0 L156.3,263.0
		L156.7,265.1 L157.2,267.1 L157.7,269.1 L158.1,271.2 L158.6,273.2 L159.1,275.2 L159.5,277.2 L160.0,279.2
		L160.5,281.2 L160.9,283.2 L161.4,285.1 L161.9,287.1 L162.3,289.0 L162.8,291.0 L163.3,292.9 L163.7,294.8
		L164.2,296.8 L164.7,298.7 L165.1,300.6 L165.6,302.4 L166.1,304.3 L166.5,306.2 L167.0,308.0 L167.5,309.8
		L167.9,311.7 L168.4,313.5 L168.9,315.3 L169.3,317.1 L169.8,318.8 L170.3,320.6 L170.7,322.3 L171.2,324.1
		L171.7,325.8 L172.1,327.5 L172.6,329.2 L173.1,330.8 L173.5,332.5 L174.0,334.1 L174.5,335.7 L174.9,337.3
		L175.4,338.9 L175.9,340.5 L176.3,342.1 L176.8,343.6 L177.3,345.1 L177.7,346.6 L178.2,348.1 L178.7,349.6
		L179.1,351.0 L179.6,352.4 L180.1,353.9 L180.5,355.2 L181.0,356.6 L181.5,358.0 L181.9,359.3 L182.4,360.6
		L182.9,361.9 L183.3,363.2 L183.8,364.4 L184.3,365.6 L184.7,366.8 L185.2,368.0 L185.7,369.2 L186.1,370.3
		L186.6,371.4 L187.1,372.5 L187.5,373.6 L188.0,374.6 L188.5,375.6 L188.9,376.6 L189.4,377.6 L189.9,378.6
		L190.3,379.5 L190.8,380.4 L191.3,381.2 L191.7,382.1 L192.2,382.9 L192.7,383.7 L193.1,384.5 L193.6,385.2
		L194.1,386.0 L194.5,386.7 L195.0,387.3 L195.5,388.0 L195.9,388.6 L196.4,389.2 L196.9,389.8 L197.3,390.4
		L197.8,390.9 L198.3,391.4 L198.7,391.9 L199.2,392.3 L199.7,392.7 L200.1,393.1 L200.6,393.5 L201.1,393.8
		L201.5,394.2 L202.0,394.5 L202.5,394.7 L202.9,395.0 L203.4,395.2 L203.9,395.4 L204.3,395.6 L204.8,395.7
		L205.3,395.8 L205.7,395.9 L206.2,396.0 L206.7,396.0 L207.1,396.0 L207.6,396.0 L208.1,396.0 L208.5,395.9
		L209.0,395.8 L209.5,395.7 L209.9,395.5 L210.4,395.4 L210.9,395.2 L211.3,394.9 L211.8,394.7 L212.3,394.4
		L212.7,394.1 L213.2,393.7 L213.7,393.4 L214.1,393.0 L214.6,392.6 L215.1,392.1 L215.5,391.7 L216.0,391.2
		L216.5,390.7 L216.9,390.1 L217.4,389.5 L217.9,388.9 L218.3,388.3 L218.8,387.7 L219.3,387.0 L219.7,386.3
		L220.2,385.6 L220.7,384.8 L221.1,384.1 L221.6,383.3 L222.1,382.4 L222.5,381.6 L223.0,380.7 L223.5,379.8
		L223.9,378.9 L224.4,378.0 L224.9,377.0 L225.3,376.1 L225.8,375.0 L226.3,374.0 L226.7,373.0 L227.2,371.9
		L227.7,370.8 L228.1,369.7 L228.6,368.5 L229.1,367.4 L229.5,366.2 L230.0,365.0 L230.5,363.8 L230.9,362.5
		L231.4,361.3 L231.9,360.0 L232.3,358.7 L232.8,357.3 L233.3,356.0 L233.7,354.6 L234.2,353.2 L234.7,351.8
		L235.1,350.4 L235.6,348.9 L236.1,347.5 L236.5,346.0 L237.0,344.5 L237.5,343.0 L237.9,341.4 L238.4,339.9
		L238.9,338.3 L239.3,336.7 L239.8,335.1 L240.3,333.4 L240.7,331.8 L241.2,330.1 L241.7,328.4 L242.1,326.7
		L242.6,325.0 L243.1,323.3 L243.5,321.6 L244.0,319.8 L244.5,318.0 L244.9,316.2 L245.4,314.4 L245.9,312.6
		L246.3,310.8 L246.8,309.0 L247.3,307.1 L247.7,305.3 L248.2,303.4 L248.7,301.5 L249.1,299.6 L249.6,297.7
		L250.1,295.8 L250.5,293.8 L251.0,291.9 L251.5,289.9 L251.9,288.0 L252.4,286.0 L252.9,284.0 L253.3,282.1
		L253.8,280.1 L254.3,278.1 L254.7,276.1 L255.2,274.0 L255.7,272.0 L256.1,270.0 L256.6,267.9 L257.1,265.9
		L257.5,263.9 L258.0,261.8 L258.5,259.7 L258.9,257.7 L259.4,255.6 L259.9,253.5 L260.3,251.5 L260.8,249.4
		L261.3,247.3 L261.7,245.2 L262.2,243.1 L262.7,241.0 L263.1,239.0 L263.6,236.9 L264.1,234.8 L264.5,232.7
		L265.0,230.6 L265.5,228.5 L265.9,226.4 L266.4,224.3 L266.9,222.2 L267.3,220.1 L267.8,218.0 L268.3,215.9
		L268.7,213.8 L269.2,211.7 L269.7,209.6 L270.1,207.6 L270.6,205.5 L271.1,203.4 L271.5,201.3 L272.0,199.3
		L272.5,197.2 L272.9,195.2 L273.4,193.1 L273.9,191.1 L274.3,189.0 L274.8,187.0 L275.3,185.0 L275.7,182.9
		L276.2,180.9 L276.7,178.9 L277.1,176.9 L277.6,174.9 L278.1,173.0 L278.5,171.0 L279.0,169.0 L279.5,167.1
		L279.9,165.1 L280.4,163.2 L280.9,161.3 L281.3,159.3 L281.8,157.4 L282.3,155.6 L282.7,153.7 L283.2,151.8
		L283.7,150.0 L284.1,148.1 L284.6,146.3 L285.1,144.5 L285.5,142.7 L286.0,140.9 L286.5,139.1 L286.9,137.4
		L287.4,135.6 L287.9,133.9 L288.3,132.2 L288.8,130.5 L289.3,128.8 L289.7,127.2 L290.2,125.5 L290.7,123.9
		L291.1,122.3 L291.6,120.7 L292.1,119.1 L292.5,117.5 L293.0,116.0 L293.5,114.5 L293.9,112.9 L294.4,111.5
		L294.9,110.0 L295.3,108.5 L295.8,107.1 L296.3,105.7 L296.7,104.3 L297.2,102.9 L297.7,101.5 L298.1,100.2
		L298.6,98.9 L299.1,97.6 L299.5,96.3 L300.0,95.1 L300.5,93.8 L300.9,92.6 L301.4,91.4 L301.9,90.2
		L302.3,89.1 L302.8,88.0 L303.3,86.8 L303.7,85.8 L304.2,84.7 L304.7,83.7 L305.1,82.6 L305.6,81.7
		L306.1,80.7 L306.5,79.7 L307.0,78.8 L307.5,77.9 L307.9,77.0 L308.4,76.2 L308.9,75.4 L309.3,74.6
		L309.8,73.8 L310.3,73.0 L310.7,72.3 L311.2,71.6 L311.7,70.9 L312.1,70.3 L312.6,69.7 L313.1,69.1
		L313.5,68.5 L314.0,68.0 L314.5,67.5 L314.9,67.0 L315.4,66.5 L315.9,66.1 L316.3,65.6 L316.8,65.3
		L317.3,64.9 L317.7,64.6 L318.2,64.2 L318.7,64.0 L319.1,63.7 L319.6,63.5 L320.1,63.3 L320.5,63.1
		L321.0,62.9 L321.5,62.8 L321.9,62.7 L322.4,62.6 L322.9,62.6 L323.3,62.5 L323.8,62.5 L324.3,62.6
		L324.7,62.6 L325.2,62.7 L325.7,62.8 L326.1,62.9 L326.6,63.1 L327.1,63.3 L327.5,63.5 L328.0,63.7
		L328.5,64.0 L328.9,64.2 L329.4,64.6 L329.9,64.9 L330.3,65.3 L330.8,65.6 L331.3,66.1 L331.7,66.5
		L332.2,67.0 L332.7,67.5 L333.1,68.0 L333.6,68.5 L334.1,69.1 L334.5,69.7 L335.0,70.3 L335.5,70.9
		L335.9,71.6 L336.4,72.3 L336.9,73.0 L337.3,73.8 L337.8,74.6 L338.3,75.4 L338.7,76.2 L339.2,77.0
		L339.7,77.9 L340.1,78.8 L340.6,79.7 L341.1,80.7 L341.5,81.7 L342.0,82.6 L342.5,83.7 L342.9,84.7
		L343.4,85.8 L343.9,86.8 L344.3,88.0 L344.8,89.1 L345.3,90.2 L345.7,91.4 L346.2,92.6 L346.7,93.8
		L347.1,95.1 L347.6,96.3 L348.1,97.6 L348.5,98.9 L349.0,100.2 L349.5,101.5 L349.9,102.9 L350.4,104.3
		L350.9,105.7 L351.3,107.1 L351.8,108.5 L352.3,110.0 L352.7,111.5 L353.2,112.9 L353.7,114.5 L354.1,116.0
		L354.6,117.5 L355.1,119.1 L355.5,120.7 L356.0,122.3 L356.5,123.9 L356.9,125.5 L357.4,127.2 L357.9,128.8
		L358.3,130.5 L358.8,132.2 L359.3,133.9 L359.7,135.6 L360.2,137.4 L360.7,139.1 L361.1,140.9 L361.6,142.7
		L362.1,144.5 L362.5,146.3 L363.0,148.1 L363.5,150.0 L363.9,151.8 L364.4,153.7 L364.9,155.6 L365.3,157.4
		L365.8,159.3 L366.3,161.3 L366.7,163.2 L367.2,165.1 L367.7,167.1 L368.1,169.0 L368.6,171.0 L369.1,173.0
		L369.5,174.9 L370.0,176.9 L370.5,178.9 L370.9,180.9 L371.4,182.9 L371.9,185.0 L372.3,187.0 L372.8,189.0
		L373.3,191.1 L373.7,193.1 L374.2,195.2 L374.7,197.2 L375.1,199.3 L375.6,201.3 L376.1,203.4 L376.5,205.5
		L377.0,207.6 L377.5,209.6 L377.9,211.7 L378.4,213.8 L378.9,215.9 L379.3,218.0 L379.8,220.1 L380.3,222.2
		L380.7,224.3 L381.2,226.4 L381.7,228.5 L382.1,230.6 L382.6,232.7 L383.1,234.8 L383.5,236.9 L384.0,239.0
		L384.5,241.0 L384.9,243.1 L385.4,245.2 L385.9,247.3 L386.3,249.4 L386.8,251.5 L387.3,253.5 L387.7,255.6
		L388.2,257.7 L388.7,259.7 L389.1,261.8 L389.6,263.9 L390.1,265.9 L390.5,267.9 L391.0,270.0 L391.5,272.0
		L391.9,274.0 L392.4,276.1 L392.9,278.1 L393.3,280.1 L393.8,282.1 L394.3,284.0 L394.7,286.0 L395.2,288.0
		L395.7,289.9 L396.1,291.9 L396.6,293.8 L397.1,295.8 L397.5,297.7 L398.0,299.6 L398.5,301.5 L398.9,303.4
		L399.4,305.3 L399.9,307.1 L400.3,309.0 L400.8,310.8 L401.3,312.6 L401.7,314.4 L402.2,316.2 L402.7,318.0
		L403.1,319.8 L403.6,321.6 L404.1,323.3 L404.5,325.0 L405.0,326.7 L405.5,328.4 L405.9,330.1 L406.4,331.8
		L406.9,333.4 L407.3,335.1 L407.8,336.7 L408.3,338.3 L408.7,339.9 L409.2,341.4 L409.7,343.0 L410.1,344.5
		L410.6,346.0 L411.1,347.5 L411.5,348.9 L412.0,350.4 L412.5,351.8 L412.9,353.2 L413.4,354.6 L413.9,356.0
		L414.3,357.3 L414.8,358.7 L415.3,360.0 L415.7,361.3 L416.2,362.5 L416.7,363.8 L417.1,365.0 L417.6,366.2
		L418.1,367.4 L418.5,368.5 L419.0,369.7 L419.5,370.8 L419.9,371.9 L420.4,373.0 L420.9,374.0 L421.3,375.0
		L421.8,376.1 L422.3,377.0 L422.7,378.0 L423.2,378.9 L423.7,379.8 L424.1,380.7 L424.6,381.6 L425.1,382.4
		L425.5,383.3 L426.0,384.1 L426.5,384.8 L426.9,385.6 L427.4,386.3 L427.9,387.0 L428.3,387.7 L428.8,388.3
		L429.3,388.9 L429.7,389.5 L430.2,390.1 L430.7,390.7 L431.1,391.2 L431.6,391.7 L432.1,392.1 L432.5,392.6
		L433.0,393.0 L433.5,393.4 L433.9,393.7 L434.4,394.1 L434.9,394.4 L435.3,394.7 L435.8,394.9 L436.3,395.2
		L436.7,395.4 L437.2,395.5 L437.7,395.7 L438.1,395.8 L438.6,395.9 L439.1,396.0 L439.5,396.0 L440.0,396.0
		L440.5,396.0 L440.9,396.0 L441.4,395.9 L441.9,395.8 L442.3,395.7 L442.8,395.6 L443.3,395.4 L443.7,395.2
		L444.2,395.0 L444.7,394.7 L445.1,394.5 L445.6,394.2 L446.1,393.8 L446.5,393.5 L447.0,393.1 L447.5,392.7
		L447.9,392.3 L448.4,391.9 L448.9,391.4 L449.3,390.9 L449.8,390.4 L450.3,389.8 L450.7,389.2 L451.2,388.6
		L451.7,388.0 L452.1,387.3 L452.6,386.7 L453.1,386.0 L453.5,385.2 L454.0,384.5 L454.5,383.7 L454.9,382.9
		L455.4,382.1 L455.9,381.2 L456.3,380.4 L456.8,379.5 L457.3,378.6 L457.7,377.6 L458.2,376.6 L458.7,375.6
		L459.1,374.6 L459.6,373.6 L460.1,372.5 L460.5,371.4 L461.0,370.3 L461.5,369.2 L461.9,368.0 L462.4,366.8
		L462.9,365.6 L463.3,364.4 L463.8,363.2 L464.3,361.9 L464.7,360.6 L465.2,359.3 L465.7,358.0 L466.1,356.6
		L466.6,355.2 L467.1,353.9 L467.5,352.4 L468.0,351.0 L468.5,349.6 L468.9,348.1 L469.4,346.6 L469.9,345.1
		L470.3,343.6 L470.8,342.1 L471.3,340.5 L471.7,338.9 L472.2,337.3 L472.7,335.7 L473.1,334.1 L473.6,332.5
		L474.1,330.8 L474.5,329.2 L475.0,327.5 L475.5,325.8 L475.9,324.1 L476.4,322.3 L476.9,320.6 L477.3,318.8
		L477.8,317.1 L478.3,315.3 L478.7,313.5 L479.2,311.7 L479.7,309.8 L480.1,308.0 L480.6,306.2 L481.1,304.3
		L481.5,302.4 L482.0,300.6 L482.5,298.7 L482.9,296.8 L483.4,294.8 L483.9,292.9 L484.3,291.0 L484.8,289.0
		L485.3,287.1 L485.7,285.1 L486.2,283.2 L486.7,281.2 L487.1,279.2 L487.6,277.2 L488.1,275.2 L488.5,273.2
		L489.0,271.2 L489.5,269.1 L489.9,267.1 L490.4,265.1 L490.9,263.0 L491.3,261.0 L491.8,258.9 L492.3,256.9
		L492.7,254.8 L493.2,252.7 L493.7,250.7 L494.1,248.6 L494.6,246.5 L495.1,244.4 L495.5,242.3 L496.0,240.2
		L496.5,238.2 L496.9,236.1 L497.4,234.0 L497.9,231.9 L498.3,229.8 L498.8,227.7 L499.3,225.6 L499.7,223.5
		L500.2,221.4 L500.7,219.3 L501.1,217.2 L501.6,215.1 L502.1,213.0 L502.5,210.9 L503.0,208.8 L503.5,206.7
		L503.9,204.6 L504.4,202.5 L504.9,200.4 L505.3,198.3 L505.8,196.3 L506.3,194.2 L506.7,192.1 L507.2,190.0
		L507.7,188.0 L508.2,185.9 L508.6,183.9 L509.1,181.8 L509.5,179.8 L510.0,177.7 L510.5,175.7 L510.9,173.7
		L511.4,171.7 L511.9,169.7 L512.3,167.7 L512.8,165.7 L513.3,163.7 L513.7,161.8 L514.2,159.8 L514.7,157.9
		L515.1,155.9 L515.6,154.0 L516.1,152.1 L516.5,150.2 L517.0,148.3 L517.5,146.5 L517.9,144.6 L518.4,142.8
		L518.9,141.0 L519.4,139.2 L519.8,137.4 L520.3,135.6 L520.7,133.8 L521.2,132.1 L521.7,130.4 L522.1,128.7
		L522.6,127.0 L523.1,125.3 L523.6,123.7 L524.0,122.1 L524.5,120.5 L524.9,118.9 L525.4,117.4 L525.9,115.8
		L526.3,114.3 L526.8,112.8 L527.3,111.4 L527.8,109.9 L528.2,108.5 L528.7,107.1 L529.1,105.7 L529.6,104.4
		L530.1,103.1 L530.5,101.8 L531.0,100.5 L531.5,99.3 L532.0,98.1 L532.4,96.9 L532.9,95.8 L533.3,94.7
		L533.8,93.6 L534.3,92.5 L534.8,91.5 L535.2,90.5 L535.7,89.5 L536.2,88.5 L536.6,87.6 L537.1,86.7
		L537.5,85.8 L538.0,84.9 L538.5,84.1 L539.0,83.3 L539.4,82.5 L539.9,81.7 L540.4,80.9 L540.8,80.2
		L541.3,79.4 L541.7,78.7 L542.2,78.1 L542.7,77.4 L543.2,76.7 L543.6,76.1 L544.1,75.5 L544.6,74.9
		L545.0,74.3 L545.5,73.7 L546.0,73.1 L546.4,72.6 L546.9,72.0 L547.4,71.5 L547.8,71.0 L548.3,70.5
		L548.8,70.0 L549.2,69.5 L549.7,69.0 L550.2,68.5 L550.6,68.0 L551.1,67.6 L551.6,67.1 L552.0,66.7
		L552.5,66.2 L553.0,65.8 L553.4,65.4 L553.9,65.0 L554.4,64.5 L554.8,64.1 L555.3,63.7 L555.8,63.3
		L556.2,62.9 L556.7,62.4  '/></g>
	</g>
	<g id="gnuplot_plot_2" ><title>cos(x)</title>
<g fill="none" color="black" stroke="currentColor" stroke-width="1.00" stroke-linecap="butt" stroke-linejoin="miter">
	<g transform="translate(423.0,466.5)" stroke="none" fill="black" font-family="Arial" font-size="12.00"  text-anchor="end">
		<text><tspan font-family="Arial" >cos(x)</tspan></text>
	</g>
</g>
<g fill="none" color="black" stroke="currentColor" stroke-width="1.00" stroke-linecap="butt" stroke-linejoin="miter">
	<use xlink:href='#gpPt1' transform='translate(90.5,62.4) scale(4.50)' color='rgb(  0,   0,   0)'/>
	<use xlink:href='#gpPt1' transform='translate(115.0,97.6) scale(4.50)' color='rgb(  0,   0,   0)'/>
	<use xlink:href='#gpPt1' transform='translate(139.5,188.3) scale(4.50)' color='rgb(  0,   0,   0)'/>
	<use xlink:href='#gpPt1' transform='translate(164.1,296.3) scale(4.50)' color='rgb(  0,   0,   0)'/>
	<use xlink:href='#gpPt1' transform='translate(188.6,376.0) scale(4.50)' color='rgb(  0,   0,   0)'/>
	<use xlink:href='#gpPt1' transform='translate(213.1,393.8) scale(4.50)' color='rgb(  0,   0,   0)'/>
	<use xlink:href='#gpPt1' transform='translate(237.7,342.2) scale(4.50)' color='rgb(  0,   0,   0)'/>
	<use xlink:href='#gpPt1' transform='translate(262.2,243.0) scale(4.50)' color='rgb(  0,   0,   0)'/>
	<use xlink:href='#gpPt1' transform='translate(286.8,138.0) scale(4.50)' color='rgb(  0,   0,   0)'/>
	<use xlink:href='#gpPt1' transform='translate(311.3,71.5) scale(4.50)' color='rgb(  0,   0,   0)'/>
	<use xlink:href='#gpPt1' transform='translate(335.8,71.5) scale(4.50)' color='rgb(  0,   0,   0)'/>
	<use xlink:href='#gpPt1' transform='translate(360.4,138.0) scale(4.50)' color='rgb(  0,   0,   0)'/>
	<use xlink:href='#gpPt1' transform='translate(384.9,243.0) scale(4.50)' color='rgb(  0,   0,   0)'/>
	<use xlink:href='#gpPt1' transform='translate(409.5,342.2) scale(4.50)' color='rgb(  0,   0,   0)'/>
	<use xlink:href='#gpPt1' transform='translate(434.0,393.8) scale(4.50)' color='rgb(  0,   0,   0)'/>
	<use xlink:href='#gpPt1' transform='translate(458.5,376.0) scale(4.50)' color='rgb(  0,   0,   0)'/>
	<use xlink:href='#gpPt1' transform='translate(483.1,296.3) scale(4.50)' color='rgb(  0,   0,   0)'/>
	<use xlink:href='#gpPt1' transform='translate(507.6,188.3) scale(4.50)' color='rgb(  0,   0,   0)'/>
	<use xlink:href='#gpPt1' transform='translate(532.1,97.6) scale(4.50)' color='rgb(  0,   0,   0)'/>
	<use xlink:href='#gpPt1' transform='translate(556.7,62.4) scale(4.50)' color='rgb(  0,   0,   0)'/>
	<use xlink:href='#gpPt1' transform='translate(452.4,462.0) scale(4.50)' color='rgb(  0,   0,   0)'/>
</g>
	</g>
<g fill="none" color="white" stroke="rgb(  0,   0,   0)" stroke-width="2.00" stroke-linecap="butt" stroke-linejoin="miter">
</g>
<g fill="none" color="black" stroke="currentColor" stroke-width="2.00" stroke-linecap="butt" stroke-linejoin="miter">
</g>
<g fill="none" color="black" stroke="black" stroke-width="1.00" stroke-linecap="butt" stroke-linejoin="miter">
</g>
<g fill="none" color="black" stroke="currentColor" stroke-width="1.00" stroke-linecap="butt" stroke-linejoin="miter">
	<path stroke='black'  d='M71.9,54.1 L71.9,404.4 L575.0,404.4 L575.0,54.1 L71.9,54.1 Z  '/></g>
<g fill="none" color="black" stroke="currentColor" stroke-width="1.00" stroke-linecap="butt" stroke-linejoin="miter">
</g>
</g>
</svg>

