%!PS-Adobe-2.0 EPSF-2.0
%%Title: destributions.plt
%%Creator: gnuplot 5.0 patchlevel 3
%%CreationDate: Sat Jun 23 17:09:47 2018
%%DocumentFonts: 
%%BoundingBox: 50 50 410 176
%%EndComments
%%BeginProlog
/gnudict 256 dict def
gnudict begin
%
% The following true/false flags may be edited by hand if desired.
% The unit line width and grayscale image gamma correction may also be changed.
%
/Color false def
/Blacktext true def
/Solid false def
/Dashlength 1 def
/Landscape false def
/Level1 false def
/Level3 false def
/Rounded false def
/ClipToBoundingBox false def
/SuppressPDFMark false def
/TransparentPatterns false def
/gnulinewidth 5.000 def
/userlinewidth gnulinewidth def
/Gamma 1.0 def
/BackgroundColor {-1.000 -1.000 -1.000} def
%
/vshift -73 def
/dl1 {
  10.0 Dashlength userlinewidth gnulinewidth div mul mul mul
  Rounded { currentlinewidth 0.75 mul sub dup 0 le { pop 0.01 } if } if
} def
/dl2 {
  10.0 Dashlength userlinewidth gnulinewidth div mul mul mul
  Rounded { currentlinewidth 0.75 mul add } if
} def
/hpt_ 31.5 def
/vpt_ 31.5 def
/hpt hpt_ def
/vpt vpt_ def
/doclip {
  ClipToBoundingBox {
    newpath 50 50 moveto 410 50 lineto 410 176 lineto 50 176 lineto closepath
    clip
  } if
} def
%
% Gnuplot Prolog Version 5.1 (Oct 2015)
%
%/SuppressPDFMark true def
%
/M {moveto} bind def
/L {lineto} bind def
/R {rmoveto} bind def
/V {rlineto} bind def
/N {newpath moveto} bind def
/Z {closepath} bind def
/C {setrgbcolor} bind def
/f {rlineto fill} bind def
/g {setgray} bind def
/Gshow {show} def   % May be redefined later in the file to support UTF-8
/vpt2 vpt 2 mul def
/hpt2 hpt 2 mul def
/Lshow {currentpoint stroke M 0 vshift R 
	Blacktext {gsave 0 setgray textshow grestore} {textshow} ifelse} def
/Rshow {currentpoint stroke M dup stringwidth pop neg vshift R
	Blacktext {gsave 0 setgray textshow grestore} {textshow} ifelse} def
/Cshow {currentpoint stroke M dup stringwidth pop -2 div vshift R 
	Blacktext {gsave 0 setgray textshow grestore} {textshow} ifelse} def
/UP {dup vpt_ mul /vpt exch def hpt_ mul /hpt exch def
  /hpt2 hpt 2 mul def /vpt2 vpt 2 mul def} def
/DL {Color {setrgbcolor Solid {pop []} if 0 setdash}
 {pop pop pop 0 setgray Solid {pop []} if 0 setdash} ifelse} def
/BL {stroke userlinewidth 2 mul setlinewidth
	Rounded {1 setlinejoin 1 setlinecap} if} def
/AL {stroke userlinewidth 2 div setlinewidth
	Rounded {1 setlinejoin 1 setlinecap} if} def
/UL {dup gnulinewidth mul /userlinewidth exch def
	dup 1 lt {pop 1} if 10 mul /udl exch def} def
/PL {stroke userlinewidth setlinewidth
	Rounded {1 setlinejoin 1 setlinecap} if} def
3.8 setmiterlimit
% Classic Line colors (version 5.0)
/LCw {1 1 1} def
/LCb {0 0 0} def
/LCa {0 0 0} def
/LC0 {1 0 0} def
/LC1 {0 1 0} def
/LC2 {0 0 1} def
/LC3 {1 0 1} def
/LC4 {0 1 1} def
/LC5 {1 1 0} def
/LC6 {0 0 0} def
/LC7 {1 0.3 0} def
/LC8 {0.5 0.5 0.5} def
% Default dash patterns (version 5.0)
/LTB {BL [] LCb DL} def
/LTw {PL [] 1 setgray} def
/LTb {PL [] LCb DL} def
/LTa {AL [1 udl mul 2 udl mul] 0 setdash LCa setrgbcolor} def
/LT0 {PL [] LC0 DL} def
/LT1 {PL [2 dl1 3 dl2] LC1 DL} def
/LT2 {PL [1 dl1 1.5 dl2] LC2 DL} def
/LT3 {PL [6 dl1 2 dl2 1 dl1 2 dl2] LC3 DL} def
/LT4 {PL [1 dl1 2 dl2 6 dl1 2 dl2 1 dl1 2 dl2] LC4 DL} def
/LT5 {PL [4 dl1 2 dl2] LC5 DL} def
/LT6 {PL [1.5 dl1 1.5 dl2 1.5 dl1 1.5 dl2 1.5 dl1 6 dl2] LC6 DL} def
/LT7 {PL [3 dl1 3 dl2 1 dl1 3 dl2] LC7 DL} def
/LT8 {PL [2 dl1 2 dl2 2 dl1 6 dl2] LC8 DL} def
/SL {[] 0 setdash} def
/Pnt {stroke [] 0 setdash gsave 1 setlinecap M 0 0 V stroke grestore} def
/Dia {stroke [] 0 setdash 2 copy vpt add M
  hpt neg vpt neg V hpt vpt neg V
  hpt vpt V hpt neg vpt V closepath stroke
  Pnt} def
/Pls {stroke [] 0 setdash vpt sub M 0 vpt2 V
  currentpoint stroke M
  hpt neg vpt neg R hpt2 0 V stroke
 } def
/Box {stroke [] 0 setdash 2 copy exch hpt sub exch vpt add M
  0 vpt2 neg V hpt2 0 V 0 vpt2 V
  hpt2 neg 0 V closepath stroke
  Pnt} def
/Crs {stroke [] 0 setdash exch hpt sub exch vpt add M
  hpt2 vpt2 neg V currentpoint stroke M
  hpt2 neg 0 R hpt2 vpt2 V stroke} def
/TriU {stroke [] 0 setdash 2 copy vpt 1.12 mul add M
  hpt neg vpt -1.62 mul V
  hpt 2 mul 0 V
  hpt neg vpt 1.62 mul V closepath stroke
  Pnt} def
/Star {2 copy Pls Crs} def
/BoxF {stroke [] 0 setdash exch hpt sub exch vpt add M
  0 vpt2 neg V hpt2 0 V 0 vpt2 V
  hpt2 neg 0 V closepath fill} def
/TriUF {stroke [] 0 setdash vpt 1.12 mul add M
  hpt neg vpt -1.62 mul V
  hpt 2 mul 0 V
  hpt neg vpt 1.62 mul V closepath fill} def
/TriD {stroke [] 0 setdash 2 copy vpt 1.12 mul sub M
  hpt neg vpt 1.62 mul V
  hpt 2 mul 0 V
  hpt neg vpt -1.62 mul V closepath stroke
  Pnt} def
/TriDF {stroke [] 0 setdash vpt 1.12 mul sub M
  hpt neg vpt 1.62 mul V
  hpt 2 mul 0 V
  hpt neg vpt -1.62 mul V closepath fill} def
/DiaF {stroke [] 0 setdash vpt add M
  hpt neg vpt neg V hpt vpt neg V
  hpt vpt V hpt neg vpt V closepath fill} def
/Pent {stroke [] 0 setdash 2 copy gsave
  translate 0 hpt M 4 {72 rotate 0 hpt L} repeat
  closepath stroke grestore Pnt} def
/PentF {stroke [] 0 setdash gsave
  translate 0 hpt M 4 {72 rotate 0 hpt L} repeat
  closepath fill grestore} def
/Circle {stroke [] 0 setdash 2 copy
  hpt 0 360 arc stroke Pnt} def
/CircleF {stroke [] 0 setdash hpt 0 360 arc fill} def
/C0 {BL [] 0 setdash 2 copy moveto vpt 90 450 arc} bind def
/C1 {BL [] 0 setdash 2 copy moveto
	2 copy vpt 0 90 arc closepath fill
	vpt 0 360 arc closepath} bind def
/C2 {BL [] 0 setdash 2 copy moveto
	2 copy vpt 90 180 arc closepath fill
	vpt 0 360 arc closepath} bind def
/C3 {BL [] 0 setdash 2 copy moveto
	2 copy vpt 0 180 arc closepath fill
	vpt 0 360 arc closepath} bind def
/C4 {BL [] 0 setdash 2 copy moveto
	2 copy vpt 180 270 arc closepath fill
	vpt 0 360 arc closepath} bind def
/C5 {BL [] 0 setdash 2 copy moveto
	2 copy vpt 0 90 arc
	2 copy moveto
	2 copy vpt 180 270 arc closepath fill
	vpt 0 360 arc} bind def
/C6 {BL [] 0 setdash 2 copy moveto
	2 copy vpt 90 270 arc closepath fill
	vpt 0 360 arc closepath} bind def
/C7 {BL [] 0 setdash 2 copy moveto
	2 copy vpt 0 270 arc closepath fill
	vpt 0 360 arc closepath} bind def
/C8 {BL [] 0 setdash 2 copy moveto
	2 copy vpt 270 360 arc closepath fill
	vpt 0 360 arc closepath} bind def
/C9 {BL [] 0 setdash 2 copy moveto
	2 copy vpt 270 450 arc closepath fill
	vpt 0 360 arc closepath} bind def
/C10 {BL [] 0 setdash 2 copy 2 copy moveto vpt 270 360 arc closepath fill
	2 copy moveto
	2 copy vpt 90 180 arc closepath fill
	vpt 0 360 arc closepath} bind def
/C11 {BL [] 0 setdash 2 copy moveto
	2 copy vpt 0 180 arc closepath fill
	2 copy moveto
	2 copy vpt 270 360 arc closepath fill
	vpt 0 360 arc closepath} bind def
/C12 {BL [] 0 setdash 2 copy moveto
	2 copy vpt 180 360 arc closepath fill
	vpt 0 360 arc closepath} bind def
/C13 {BL [] 0 setdash 2 copy moveto
	2 copy vpt 0 90 arc closepath fill
	2 copy moveto
	2 copy vpt 180 360 arc closepath fill
	vpt 0 360 arc closepath} bind def
/C14 {BL [] 0 setdash 2 copy moveto
	2 copy vpt 90 360 arc closepath fill
	vpt 0 360 arc} bind def
/C15 {BL [] 0 setdash 2 copy vpt 0 360 arc closepath fill
	vpt 0 360 arc closepath} bind def
/Rec {newpath 4 2 roll moveto 1 index 0 rlineto 0 exch rlineto
	neg 0 rlineto closepath} bind def
/Square {dup Rec} bind def
/Bsquare {vpt sub exch vpt sub exch vpt2 Square} bind def
/S0 {BL [] 0 setdash 2 copy moveto 0 vpt rlineto BL Bsquare} bind def
/S1 {BL [] 0 setdash 2 copy vpt Square fill Bsquare} bind def
/S2 {BL [] 0 setdash 2 copy exch vpt sub exch vpt Square fill Bsquare} bind def
/S3 {BL [] 0 setdash 2 copy exch vpt sub exch vpt2 vpt Rec fill Bsquare} bind def
/S4 {BL [] 0 setdash 2 copy exch vpt sub exch vpt sub vpt Square fill Bsquare} bind def
/S5 {BL [] 0 setdash 2 copy 2 copy vpt Square fill
	exch vpt sub exch vpt sub vpt Square fill Bsquare} bind def
/S6 {BL [] 0 setdash 2 copy exch vpt sub exch vpt sub vpt vpt2 Rec fill Bsquare} bind def
/S7 {BL [] 0 setdash 2 copy exch vpt sub exch vpt sub vpt vpt2 Rec fill
	2 copy vpt Square fill Bsquare} bind def
/S8 {BL [] 0 setdash 2 copy vpt sub vpt Square fill Bsquare} bind def
/S9 {BL [] 0 setdash 2 copy vpt sub vpt vpt2 Rec fill Bsquare} bind def
/S10 {BL [] 0 setdash 2 copy vpt sub vpt Square fill 2 copy exch vpt sub exch vpt Square fill
	Bsquare} bind def
/S11 {BL [] 0 setdash 2 copy vpt sub vpt Square fill 2 copy exch vpt sub exch vpt2 vpt Rec fill
	Bsquare} bind def
/S12 {BL [] 0 setdash 2 copy exch vpt sub exch vpt sub vpt2 vpt Rec fill Bsquare} bind def
/S13 {BL [] 0 setdash 2 copy exch vpt sub exch vpt sub vpt2 vpt Rec fill
	2 copy vpt Square fill Bsquare} bind def
/S14 {BL [] 0 setdash 2 copy exch vpt sub exch vpt sub vpt2 vpt Rec fill
	2 copy exch vpt sub exch vpt Square fill Bsquare} bind def
/S15 {BL [] 0 setdash 2 copy Bsquare fill Bsquare} bind def
/D0 {gsave translate 45 rotate 0 0 S0 stroke grestore} bind def
/D1 {gsave translate 45 rotate 0 0 S1 stroke grestore} bind def
/D2 {gsave translate 45 rotate 0 0 S2 stroke grestore} bind def
/D3 {gsave translate 45 rotate 0 0 S3 stroke grestore} bind def
/D4 {gsave translate 45 rotate 0 0 S4 stroke grestore} bind def
/D5 {gsave translate 45 rotate 0 0 S5 stroke grestore} bind def
/D6 {gsave translate 45 rotate 0 0 S6 stroke grestore} bind def
/D7 {gsave translate 45 rotate 0 0 S7 stroke grestore} bind def
/D8 {gsave translate 45 rotate 0 0 S8 stroke grestore} bind def
/D9 {gsave translate 45 rotate 0 0 S9 stroke grestore} bind def
/D10 {gsave translate 45 rotate 0 0 S10 stroke grestore} bind def
/D11 {gsave translate 45 rotate 0 0 S11 stroke grestore} bind def
/D12 {gsave translate 45 rotate 0 0 S12 stroke grestore} bind def
/D13 {gsave translate 45 rotate 0 0 S13 stroke grestore} bind def
/D14 {gsave translate 45 rotate 0 0 S14 stroke grestore} bind def
/D15 {gsave translate 45 rotate 0 0 S15 stroke grestore} bind def
/DiaE {stroke [] 0 setdash vpt add M
  hpt neg vpt neg V hpt vpt neg V
  hpt vpt V hpt neg vpt V closepath stroke} def
/BoxE {stroke [] 0 setdash exch hpt sub exch vpt add M
  0 vpt2 neg V hpt2 0 V 0 vpt2 V
  hpt2 neg 0 V closepath stroke} def
/TriUE {stroke [] 0 setdash vpt 1.12 mul add M
  hpt neg vpt -1.62 mul V
  hpt 2 mul 0 V
  hpt neg vpt 1.62 mul V closepath stroke} def
/TriDE {stroke [] 0 setdash vpt 1.12 mul sub M
  hpt neg vpt 1.62 mul V
  hpt 2 mul 0 V
  hpt neg vpt -1.62 mul V closepath stroke} def
/PentE {stroke [] 0 setdash gsave
  translate 0 hpt M 4 {72 rotate 0 hpt L} repeat
  closepath stroke grestore} def
/CircE {stroke [] 0 setdash 
  hpt 0 360 arc stroke} def
/Opaque {gsave closepath 1 setgray fill grestore 0 setgray closepath} def
/DiaW {stroke [] 0 setdash vpt add M
  hpt neg vpt neg V hpt vpt neg V
  hpt vpt V hpt neg vpt V Opaque stroke} def
/BoxW {stroke [] 0 setdash exch hpt sub exch vpt add M
  0 vpt2 neg V hpt2 0 V 0 vpt2 V
  hpt2 neg 0 V Opaque stroke} def
/TriUW {stroke [] 0 setdash vpt 1.12 mul add M
  hpt neg vpt -1.62 mul V
  hpt 2 mul 0 V
  hpt neg vpt 1.62 mul V Opaque stroke} def
/TriDW {stroke [] 0 setdash vpt 1.12 mul sub M
  hpt neg vpt 1.62 mul V
  hpt 2 mul 0 V
  hpt neg vpt -1.62 mul V Opaque stroke} def
/PentW {stroke [] 0 setdash gsave
  translate 0 hpt M 4 {72 rotate 0 hpt L} repeat
  Opaque stroke grestore} def
/CircW {stroke [] 0 setdash 
  hpt 0 360 arc Opaque stroke} def
/BoxFill {gsave Rec 1 setgray fill grestore} def
/Density {
  /Fillden exch def
  currentrgbcolor
  /ColB exch def /ColG exch def /ColR exch def
  /ColR ColR Fillden mul Fillden sub 1 add def
  /ColG ColG Fillden mul Fillden sub 1 add def
  /ColB ColB Fillden mul Fillden sub 1 add def
  ColR ColG ColB setrgbcolor} def
/BoxColFill {gsave Rec PolyFill} def
/PolyFill {gsave Density fill grestore grestore} def
/h {rlineto rlineto rlineto gsave closepath fill grestore} bind def
%
% PostScript Level 1 Pattern Fill routine for rectangles
% Usage: x y w h s a XX PatternFill
%	x,y = lower left corner of box to be filled
%	w,h = width and height of box
%	  a = angle in degrees between lines and x-axis
%	 XX = 0/1 for no/yes cross-hatch
%
/PatternFill {gsave /PFa [ 9 2 roll ] def
  PFa 0 get PFa 2 get 2 div add PFa 1 get PFa 3 get 2 div add translate
  PFa 2 get -2 div PFa 3 get -2 div PFa 2 get PFa 3 get Rec
  TransparentPatterns {} {gsave 1 setgray fill grestore} ifelse
  clip
  currentlinewidth 0.5 mul setlinewidth
  /PFs PFa 2 get dup mul PFa 3 get dup mul add sqrt def
  0 0 M PFa 5 get rotate PFs -2 div dup translate
  0 1 PFs PFa 4 get div 1 add floor cvi
	{PFa 4 get mul 0 M 0 PFs V} for
  0 PFa 6 get ne {
	0 1 PFs PFa 4 get div 1 add floor cvi
	{PFa 4 get mul 0 2 1 roll M PFs 0 V} for
 } if
  stroke grestore} def
%
/languagelevel where
 {pop languagelevel} {1} ifelse
dup 2 lt
	{/InterpretLevel1 true def
	 /InterpretLevel3 false def}
	{/InterpretLevel1 Level1 def
	 2 gt
	    {/InterpretLevel3 Level3 def}
	    {/InterpretLevel3 false def}
	 ifelse }
 ifelse
%
% PostScript level 2 pattern fill definitions
%
/Level2PatternFill {
/Tile8x8 {/PaintType 2 /PatternType 1 /TilingType 1 /BBox [0 0 8 8] /XStep 8 /YStep 8}
	bind def
/KeepColor {currentrgbcolor [/Pattern /DeviceRGB] setcolorspace} bind def
<< Tile8x8
 /PaintProc {0.5 setlinewidth pop 0 0 M 8 8 L 0 8 M 8 0 L stroke} 
>> matrix makepattern
/Pat1 exch def
<< Tile8x8
 /PaintProc {0.5 setlinewidth pop 0 0 M 8 8 L 0 8 M 8 0 L stroke
	0 4 M 4 8 L 8 4 L 4 0 L 0 4 L stroke}
>> matrix makepattern
/Pat2 exch def
<< Tile8x8
 /PaintProc {0.5 setlinewidth pop 0 0 M 0 8 L
	8 8 L 8 0 L 0 0 L fill}
>> matrix makepattern
/Pat3 exch def
<< Tile8x8
 /PaintProc {0.5 setlinewidth pop -4 8 M 8 -4 L
	0 12 M 12 0 L stroke}
>> matrix makepattern
/Pat4 exch def
<< Tile8x8
 /PaintProc {0.5 setlinewidth pop -4 0 M 8 12 L
	0 -4 M 12 8 L stroke}
>> matrix makepattern
/Pat5 exch def
<< Tile8x8
 /PaintProc {0.5 setlinewidth pop -2 8 M 4 -4 L
	0 12 M 8 -4 L 4 12 M 10 0 L stroke}
>> matrix makepattern
/Pat6 exch def
<< Tile8x8
 /PaintProc {0.5 setlinewidth pop -2 0 M 4 12 L
	0 -4 M 8 12 L 4 -4 M 10 8 L stroke}
>> matrix makepattern
/Pat7 exch def
<< Tile8x8
 /PaintProc {0.5 setlinewidth pop 8 -2 M -4 4 L
	12 0 M -4 8 L 12 4 M 0 10 L stroke}
>> matrix makepattern
/Pat8 exch def
<< Tile8x8
 /PaintProc {0.5 setlinewidth pop 0 -2 M 12 4 L
	-4 0 M 12 8 L -4 4 M 8 10 L stroke}
>> matrix makepattern
/Pat9 exch def
/Pattern1 {PatternBgnd KeepColor Pat1 setpattern} bind def
/Pattern2 {PatternBgnd KeepColor Pat2 setpattern} bind def
/Pattern3 {PatternBgnd KeepColor Pat3 setpattern} bind def
/Pattern4 {PatternBgnd KeepColor Landscape {Pat5} {Pat4} ifelse setpattern} bind def
/Pattern5 {PatternBgnd KeepColor Landscape {Pat4} {Pat5} ifelse setpattern} bind def
/Pattern6 {PatternBgnd KeepColor Landscape {Pat9} {Pat6} ifelse setpattern} bind def
/Pattern7 {PatternBgnd KeepColor Landscape {Pat8} {Pat7} ifelse setpattern} bind def
} def
%
%
%End of PostScript Level 2 code
%
/PatternBgnd {
  TransparentPatterns {} {gsave 1 setgray fill grestore} ifelse
} def
%
% Substitute for Level 2 pattern fill codes with
% grayscale if Level 2 support is not selected.
%
/Level1PatternFill {
/Pattern1 {0.250 Density} bind def
/Pattern2 {0.500 Density} bind def
/Pattern3 {0.750 Density} bind def
/Pattern4 {0.125 Density} bind def
/Pattern5 {0.375 Density} bind def
/Pattern6 {0.625 Density} bind def
/Pattern7 {0.875 Density} bind def
} def
%
% Now test for support of Level 2 code
%
Level1 {Level1PatternFill} {Level2PatternFill} ifelse
%
/Symbol-Oblique /Symbol findfont [1 0 .167 1 0 0] makefont
dup length dict begin {1 index /FID eq {pop pop} {def} ifelse} forall
currentdict end definefont pop
%
Level1 SuppressPDFMark or 
{} {
/SDict 10 dict def
systemdict /pdfmark known not {
  userdict /pdfmark systemdict /cleartomark get put
} if
SDict begin [
  /Title (destributions.plt)
  /Subject (gnuplot plot)
  /Creator (gnuplot 5.0 patchlevel 3)
  /Author (kasper)
%  /Producer (gnuplot)
%  /Keywords ()
  /CreationDate (Sat Jun 23 17:09:47 2018)
  /DOCINFO pdfmark
end
} ifelse
%
% Support for boxed text - Ethan A Merritt May 2005
%
/InitTextBox { userdict /TBy2 3 -1 roll put userdict /TBx2 3 -1 roll put
           userdict /TBy1 3 -1 roll put userdict /TBx1 3 -1 roll put
	   /Boxing true def } def
/ExtendTextBox { Boxing
    { gsave dup false charpath pathbbox
      dup TBy2 gt {userdict /TBy2 3 -1 roll put} {pop} ifelse
      dup TBx2 gt {userdict /TBx2 3 -1 roll put} {pop} ifelse
      dup TBy1 lt {userdict /TBy1 3 -1 roll put} {pop} ifelse
      dup TBx1 lt {userdict /TBx1 3 -1 roll put} {pop} ifelse
      grestore } if } def
/PopTextBox { newpath TBx1 TBxmargin sub TBy1 TBymargin sub M
               TBx1 TBxmargin sub TBy2 TBymargin add L
	       TBx2 TBxmargin add TBy2 TBymargin add L
	       TBx2 TBxmargin add TBy1 TBymargin sub L closepath } def
/DrawTextBox { PopTextBox stroke /Boxing false def} def
/FillTextBox { gsave PopTextBox 1 1 1 setrgbcolor fill grestore /Boxing false def} def
0 0 0 0 InitTextBox
/TBxmargin 20 def
/TBymargin 20 def
/Boxing false def
/textshow { ExtendTextBox Gshow } def
%
% redundant definitions for compatibility with prologue.ps older than 5.0.2
/LTB {BL [] LCb DL} def
/LTb {PL [] LCb DL} def
end
%%EndProlog
%%Page: 1 1
gnudict begin
gsave
doclip
50 50 translate
0.050 0.050 scale
0 setgray
newpath
1.000 UL
LTb
LCb setrgbcolor
[] 0 setdash
0.500 UL
LTa
LCa setrgbcolor
396 220 M
1869 0 V
stroke
1.000 UL
LTb
LCb setrgbcolor
[] 0 setdash
396 220 M
63 0 V
1806 0 R
-63 0 V
stroke
LTb
0.500 UL
LTa
LCa setrgbcolor
396 636 M
1869 0 V
stroke
1.000 UL
LTb
LCb setrgbcolor
[] 0 setdash
396 636 M
63 0 V
1806 0 R
-63 0 V
stroke
LTb
0.500 UL
LTa
LCa setrgbcolor
396 1052 M
1869 0 V
stroke
1.000 UL
LTb
LCb setrgbcolor
[] 0 setdash
396 1052 M
63 0 V
1806 0 R
-63 0 V
stroke
LTb
0.500 UL
LTa
LCa setrgbcolor
396 1468 M
1869 0 V
stroke
1.000 UL
LTb
LCb setrgbcolor
[] 0 setdash
396 1468 M
63 0 V
1806 0 R
-63 0 V
stroke
LTb
0.500 UL
LTa
LCa setrgbcolor
396 1884 M
1869 0 V
stroke
1.000 UL
LTb
LCb setrgbcolor
[] 0 setdash
396 1884 M
63 0 V
1806 0 R
-63 0 V
stroke
LTb
0.500 UL
LTa
LCa setrgbcolor
396 2300 M
1869 0 V
stroke
1.000 UL
LTb
LCb setrgbcolor
[] 0 setdash
396 2300 M
63 0 V
1806 0 R
-63 0 V
stroke
LTb
0.500 UL
LTa
LCa setrgbcolor
396 220 M
0 2080 V
stroke
1.000 UL
LTb
LCb setrgbcolor
[] 0 setdash
396 220 M
0 63 V
0 2017 R
0 -63 V
stroke
LTb
0.500 UL
LTa
LCa setrgbcolor
770 220 M
0 2080 V
stroke
1.000 UL
LTb
LCb setrgbcolor
[] 0 setdash
770 220 M
0 63 V
0 2017 R
0 -63 V
stroke
LTb
0.500 UL
LTa
LCa setrgbcolor
1144 220 M
0 2080 V
stroke
1.000 UL
LTb
LCb setrgbcolor
[] 0 setdash
1144 220 M
0 63 V
0 2017 R
0 -63 V
stroke
LTb
0.500 UL
LTa
LCa setrgbcolor
1517 220 M
0 2080 V
stroke
1.000 UL
LTb
LCb setrgbcolor
[] 0 setdash
1517 220 M
0 63 V
0 2017 R
0 -63 V
stroke
LTb
0.500 UL
LTa
LCa setrgbcolor
1891 220 M
0 2080 V
stroke
1.000 UL
LTb
LCb setrgbcolor
[] 0 setdash
1891 220 M
0 63 V
0 2017 R
0 -63 V
stroke
LTb
0.500 UL
LTa
LCa setrgbcolor
2265 220 M
0 2080 V
stroke
1.000 UL
LTb
LCb setrgbcolor
[] 0 setdash
2265 220 M
0 63 V
0 2017 R
0 -63 V
stroke
LTb
1.000 UL
LTb
396 2300 N
396 220 L
1869 0 V
0 2080 V
-1869 0 V
Z stroke
1.000 UP
1.000 UL
LTb
0.500 UP
1.000 UL
LTb
0.00 0.00 0.00 C 1997 547 CircleF
948 2035 CircleF
1495 1660 CircleF
1829 2294 CircleF
545 585 CircleF
1258 591 CircleF
1369 1919 CircleF
546 1423 CircleF
1612 1150 CircleF
712 851 CircleF
976 2193 CircleF
942 2023 CircleF
1703 1328 CircleF
478 376 CircleF
2025 1546 CircleF
441 1735 CircleF
1881 884 CircleF
1519 1016 CircleF
418 985 CircleF
1106 410 CircleF
1411 1969 CircleF
900 353 CircleF
1626 948 CircleF
1596 862 CircleF
1886 1907 CircleF
1540 444 CircleF
1816 2100 CircleF
2217 1175 CircleF
1212 258 CircleF
1394 862 CircleF
1622 1381 CircleF
465 1157 CircleF
2036 1547 CircleF
1953 2070 CircleF
407 662 CircleF
2229 1363 CircleF
497 741 CircleF
1542 1700 CircleF
1518 751 CircleF
434 1046 CircleF
520 1535 CircleF
1339 1938 CircleF
1398 1217 CircleF
929 2244 CircleF
1326 1924 CircleF
922 539 CircleF
1102 883 CircleF
1525 751 CircleF
2185 1129 CircleF
667 2223 CircleF
1610 481 CircleF
1354 1683 CircleF
1099 482 CircleF
1172 2250 CircleF
1108 1126 CircleF
1094 1151 CircleF
523 2047 CircleF
908 1477 CircleF
1064 1383 CircleF
1475 1998 CircleF
1103 2006 CircleF
411 1793 CircleF
728 1493 CircleF
417 500 CircleF
488 545 CircleF
578 1673 CircleF
923 1489 CircleF
1148 1589 CircleF
1772 1920 CircleF
1581 464 CircleF
869 236 CircleF
1452 887 CircleF
2051 1965 CircleF
2124 726 CircleF
1140 1264 CircleF
579 1835 CircleF
1070 441 CircleF
1392 1340 CircleF
1739 1352 CircleF
1654 1816 CircleF
1705 1823 CircleF
1268 2264 CircleF
1108 2027 CircleF
1593 463 CircleF
1678 791 CircleF
833 2173 CircleF
923 1882 CircleF
881 569 CircleF
1588 603 CircleF
1164 295 CircleF
1679 1279 CircleF
1915 318 CircleF
1546 938 CircleF
1490 914 CircleF
2058 758 CircleF
585 1447 CircleF
450 1401 CircleF
1466 1073 CircleF
1211 663 CircleF
1380 474 CircleF
1307 1802 CircleF
510 1821 CircleF
1442 887 CircleF
2148 630 CircleF
1340 945 CircleF
832 618 CircleF
1999 315 CircleF
842 1203 CircleF
1127 1934 CircleF
1903 803 CircleF
550 2108 CircleF
2022 452 CircleF
1285 1140 CircleF
1371 2117 CircleF
1621 320 CircleF
460 517 CircleF
1908 418 CircleF
2101 986 CircleF
1173 1987 CircleF
1453 2135 CircleF
766 1881 CircleF
605 335 CircleF
1974 949 CircleF
1383 709 CircleF
722 917 CircleF
1359 755 CircleF
850 1022 CircleF
1085 1714 CircleF
1944 2072 CircleF
1574 1225 CircleF
2150 1601 CircleF
1566 1775 CircleF
1815 1340 CircleF
612 584 CircleF
1121 1637 CircleF
575 1439 CircleF
1292 652 CircleF
1595 894 CircleF
1439 573 CircleF
1441 1744 CircleF
1339 375 CircleF
2246 1775 CircleF
1256 965 CircleF
1267 820 CircleF
861 420 CircleF
1838 610 CircleF
1817 1047 CircleF
2143 1300 CircleF
2146 325 CircleF
1694 894 CircleF
1763 1864 CircleF
2097 659 CircleF
2261 1367 CircleF
1396 1377 CircleF
1744 416 CircleF
936 690 CircleF
711 799 CircleF
2216 1528 CircleF
1586 1134 CircleF
2110 2062 CircleF
1397 1653 CircleF
532 835 CircleF
558 235 CircleF
1919 268 CircleF
504 1280 CircleF
1044 1861 CircleF
956 754 CircleF
396 840 CircleF
1907 1333 CircleF
1992 1322 CircleF
1572 517 CircleF
1809 1880 CircleF
1183 1737 CircleF
1194 341 CircleF
712 936 CircleF
2159 1685 CircleF
458 254 CircleF
396 469 CircleF
440 1915 CircleF
663 389 CircleF
1003 1238 CircleF
2023 1519 CircleF
1791 2031 CircleF
2120 1374 CircleF
1154 1835 CircleF
554 292 CircleF
2114 1968 CircleF
1952 928 CircleF
1461 759 CircleF
1141 1757 CircleF
1524 931 CircleF
1225 1544 CircleF
1065 1142 CircleF
1810 1013 CircleF
879 2090 CircleF
1261 1433 CircleF
1123 913 CircleF
784 501 CircleF
777 490 CircleF
1686 1487 CircleF
2090 1832 CircleF
1599 1937 CircleF
1546 1211 CircleF
706 606 CircleF
1771 1393 CircleF
2124 925 CircleF
2089 985 CircleF
2220 769 CircleF
1912 1743 CircleF
1602 365 CircleF
1576 445 CircleF
1616 261 CircleF
1220 2010 CircleF
686 1561 CircleF
2247 1978 CircleF
870 2084 CircleF
1555 2087 CircleF
1745 710 CircleF
1095 2066 CircleF
1183 449 CircleF
1240 938 CircleF
1235 963 CircleF
1729 1104 CircleF
1557 1311 CircleF
689 774 CircleF
1507 1859 CircleF
1096 734 CircleF
1906 1916 CircleF
597 2223 CircleF
1256 424 CircleF
1907 1705 CircleF
2254 1111 CircleF
1539 1709 CircleF
1637 2271 CircleF
1524 396 CircleF
575 334 CircleF
1200 1354 CircleF
1167 518 CircleF
2209 290 CircleF
1644 483 CircleF
956 765 CircleF
2105 1622 CircleF
1348 1723 CircleF
1311 1503 CircleF
1677 2195 CircleF
1732 1247 CircleF
1636 1695 CircleF
2120 792 CircleF
1191 1439 CircleF
884 280 CircleF
1650 962 CircleF
552 430 CircleF
2082 1252 CircleF
852 2033 CircleF
1385 2117 CircleF
2262 1945 CircleF
721 2119 CircleF
1337 1641 CircleF
1584 2285 CircleF
957 888 CircleF
2157 251 CircleF
1919 1480 CircleF
1749 1754 CircleF
2043 531 CircleF
1001 516 CircleF
729 2289 CircleF
1329 764 CircleF
575 1054 CircleF
1812 927 CircleF
906 817 CircleF
867 784 CircleF
613 1105 CircleF
740 1509 CircleF
599 1924 CircleF
1541 1070 CircleF
659 1375 CircleF
1188 2207 CircleF
697 527 CircleF
1691 308 CircleF
952 254 CircleF
740 1209 CircleF
417 1641 CircleF
1773 443 CircleF
554 1249 CircleF
1231 963 CircleF
1857 1673 CircleF
1570 2088 CircleF
628 1909 CircleF
1363 705 CircleF
1576 491 CircleF
1595 1826 CircleF
1677 356 CircleF
1756 1980 CircleF
794 1095 CircleF
2057 1282 CircleF
1213 371 CircleF
2238 1153 CircleF
1809 1723 CircleF
1434 1968 CircleF
802 225 CircleF
765 2298 CircleF
1706 1937 CircleF
2073 1937 CircleF
1588 1083 CircleF
505 780 CircleF
1415 1677 CircleF
473 699 CircleF
1827 1819 CircleF
539 2256 CircleF
750 2228 CircleF
1310 1523 CircleF
467 1208 CircleF
535 1872 CircleF
766 1530 CircleF
1582 1084 CircleF
1578 1951 CircleF
1171 913 CircleF
1625 868 CircleF
693 834 CircleF
1753 672 CircleF
1451 784 CircleF
2111 1480 CircleF
1333 1641 CircleF
1096 1423 CircleF
1633 1392 CircleF
1412 535 CircleF
751 1429 CircleF
1567 770 CircleF
1098 1934 CircleF
2067 241 CircleF
844 1315 CircleF
1970 1580 CircleF
2003 1259 CircleF
2200 259 CircleF
1882 1659 CircleF
837 967 CircleF
2196 539 CircleF
2199 1186 CircleF
1959 925 CircleF
476 1257 CircleF
2083 1439 CircleF
1610 412 CircleF
709 794 CircleF
1063 1349 CircleF
583 743 CircleF
1429 927 CircleF
1850 1041 CircleF
2253 1546 CircleF
2067 2215 CircleF
1623 1653 CircleF
1612 2076 CircleF
486 1497 CircleF
481 247 CircleF
542 2055 CircleF
1054 471 CircleF
1107 750 CircleF
1717 283 CircleF
1045 2038 CircleF
968 1685 CircleF
1175 1065 CircleF
2182 2236 CircleF
1791 1745 CircleF
1076 1759 CircleF
1089 757 CircleF
1702 276 CircleF
2166 947 CircleF
2114 2290 CircleF
2197 2227 CircleF
411 307 CircleF
1979 969 CircleF
700 693 CircleF
1545 2028 CircleF
877 2221 CircleF
1786 1393 CircleF
1641 554 CircleF
2209 1513 CircleF
639 1710 CircleF
1060 1247 CircleF
1249 1730 CircleF
1801 543 CircleF
1803 1673 CircleF
1340 1618 CircleF
1692 1194 CircleF
1586 1679 CircleF
1349 1226 CircleF
511 1619 CircleF
1725 1627 CircleF
1409 2235 CircleF
1589 814 CircleF
1391 854 CircleF
1229 1266 CircleF
2128 1418 CircleF
806 806 CircleF
526 1625 CircleF
410 1928 CircleF
1948 1802 CircleF
1368 918 CircleF
1204 664 CircleF
1898 365 CircleF
2106 872 CircleF
1430 2251 CircleF
2239 770 CircleF
1616 1318 CircleF
832 826 CircleF
1916 1813 CircleF
1510 759 CircleF
898 1307 CircleF
1957 1234 CircleF
1899 2101 CircleF
701 1909 CircleF
1752 2287 CircleF
1465 731 CircleF
1011 230 CircleF
1254 496 CircleF
535 998 CircleF
1230 1525 CircleF
1051 1119 CircleF
2063 227 CircleF
2190 480 CircleF
947 1829 CircleF
2061 2073 CircleF
457 551 CircleF
1169 2024 CircleF
1605 673 CircleF
1839 1905 CircleF
451 1255 CircleF
1898 1472 CircleF
1786 495 CircleF
1530 642 CircleF
891 1636 CircleF
1474 1699 CircleF
973 2149 CircleF
664 637 CircleF
2136 435 CircleF
1005 689 CircleF
2034 670 CircleF
613 2111 CircleF
1098 1322 CircleF
1847 267 CircleF
1793 1361 CircleF
1952 1836 CircleF
483 1543 CircleF
1104 1863 CircleF
1832 2269 CircleF
2251 290 CircleF
1641 1404 CircleF
1787 2247 CircleF
1325 2066 CircleF
723 1110 CircleF
2248 1262 CircleF
1617 2024 CircleF
1737 1821 CircleF
1847 414 CircleF
956 1370 CircleF
612 318 CircleF
586 2193 CircleF
1936 527 CircleF
1489 642 CircleF
2148 955 CircleF
747 2154 CircleF
1119 1996 CircleF
1329 493 CircleF
1944 2292 CircleF
431 227 CircleF
1188 240 CircleF
1338 381 CircleF
2035 681 CircleF
1979 1579 CircleF
984 525 CircleF
781 1115 CircleF
758 860 CircleF
1104 256 CircleF
1247 2224 CircleF
807 1037 CircleF
988 1069 CircleF
1000 1683 CircleF
886 1930 CircleF
1956 408 CircleF
1925 1995 CircleF
572 724 CircleF
2009 1464 CircleF
993 1759 CircleF
1928 566 CircleF
1131 500 CircleF
981 1467 CircleF
1452 1273 CircleF
2091 2183 CircleF
1375 974 CircleF
2091 1767 CircleF
1808 685 CircleF
680 383 CircleF
2128 1080 CircleF
2079 1804 CircleF
1338 1716 CircleF
1545 1464 CircleF
2192 1214 CircleF
763 803 CircleF
803 254 CircleF
1231 1490 CircleF
678 1800 CircleF
2.000 UL
LTb
LCb setrgbcolor
[] 0 setdash
1.000 UL
LTb
396 2300 N
396 220 L
1869 0 V
0 2080 V
-1869 0 V
Z stroke
1.000 UP
1.000 UL
LTb
1.000 UL
LTb
0.500 UL
LTa
LCa setrgbcolor
2796 220 M
1868 0 V
stroke
1.000 UL
LTb
LCb setrgbcolor
[] 0 setdash
2796 220 M
63 0 V
1805 0 R
-63 0 V
stroke
LTb
0.500 UL
LTa
LCa setrgbcolor
2796 636 M
1868 0 V
stroke
1.000 UL
LTb
LCb setrgbcolor
[] 0 setdash
2796 636 M
63 0 V
1805 0 R
-63 0 V
stroke
LTb
0.500 UL
LTa
LCa setrgbcolor
2796 1052 M
1868 0 V
stroke
1.000 UL
LTb
LCb setrgbcolor
[] 0 setdash
2796 1052 M
63 0 V
1805 0 R
-63 0 V
stroke
LTb
0.500 UL
LTa
LCa setrgbcolor
2796 1468 M
1868 0 V
stroke
1.000 UL
LTb
LCb setrgbcolor
[] 0 setdash
2796 1468 M
63 0 V
1805 0 R
-63 0 V
stroke
LTb
0.500 UL
LTa
LCa setrgbcolor
2796 1884 M
1868 0 V
stroke
1.000 UL
LTb
LCb setrgbcolor
[] 0 setdash
2796 1884 M
63 0 V
1805 0 R
-63 0 V
stroke
LTb
0.500 UL
LTa
LCa setrgbcolor
2796 2300 M
1868 0 V
stroke
1.000 UL
LTb
LCb setrgbcolor
[] 0 setdash
2796 2300 M
63 0 V
1805 0 R
-63 0 V
stroke
LTb
0.500 UL
LTa
LCa setrgbcolor
2796 220 M
0 2080 V
stroke
1.000 UL
LTb
LCb setrgbcolor
[] 0 setdash
2796 220 M
0 63 V
0 2017 R
0 -63 V
stroke
LTb
0.500 UL
LTa
LCa setrgbcolor
3170 220 M
0 2080 V
stroke
1.000 UL
LTb
LCb setrgbcolor
[] 0 setdash
3170 220 M
0 63 V
0 2017 R
0 -63 V
stroke
LTb
0.500 UL
LTa
LCa setrgbcolor
3543 220 M
0 2080 V
stroke
1.000 UL
LTb
LCb setrgbcolor
[] 0 setdash
3543 220 M
0 63 V
0 2017 R
0 -63 V
stroke
LTb
0.500 UL
LTa
LCa setrgbcolor
3917 220 M
0 2080 V
stroke
1.000 UL
LTb
LCb setrgbcolor
[] 0 setdash
3917 220 M
0 63 V
0 2017 R
0 -63 V
stroke
LTb
0.500 UL
LTa
LCa setrgbcolor
4290 220 M
0 2080 V
stroke
1.000 UL
LTb
LCb setrgbcolor
[] 0 setdash
4290 220 M
0 63 V
0 2017 R
0 -63 V
stroke
LTb
0.500 UL
LTa
LCa setrgbcolor
4664 220 M
0 2080 V
stroke
1.000 UL
LTb
LCb setrgbcolor
[] 0 setdash
4664 220 M
0 63 V
0 2017 R
0 -63 V
stroke
LTb
1.000 UL
LTb
2796 2300 N
0 -2080 V
1868 0 V
0 2080 V
-1868 0 V
Z stroke
1.000 UP
1.000 UL
LTb
0.500 UP
1.000 UL
LTb
0.00 0.00 0.00 C 2796 220 CircleF
3730 913 CircleF
3263 1607 CircleF
4197 451 CircleF
3030 1144 CircleF
3964 1838 CircleF
3497 682 CircleF
4431 1376 CircleF
2913 2069 CircleF
3847 297 CircleF
3380 990 CircleF
4314 1684 CircleF
3146 528 CircleF
4080 1221 CircleF
3613 1915 CircleF
4547 759 CircleF
2854 1453 CircleF
3788 2146 CircleF
3321 374 CircleF
4255 1067 CircleF
3088 1761 CircleF
4022 605 CircleF
3555 1299 CircleF
4489 1992 CircleF
2971 836 CircleF
3905 1530 CircleF
3438 2223 CircleF
4372 246 CircleF
3205 939 CircleF
4139 1632 CircleF
3672 477 CircleF
4606 1170 CircleF
2825 1863 CircleF
3759 708 CircleF
3292 1401 CircleF
4226 2095 CircleF
3059 323 CircleF
3993 1016 CircleF
3526 1709 CircleF
4460 554 CircleF
2942 1247 CircleF
3876 1940 CircleF
3409 785 CircleF
4343 1478 CircleF
3175 2172 CircleF
4109 400 CircleF
3642 1093 CircleF
4576 1786 CircleF
2884 631 CircleF
3818 1324 CircleF
3351 2018 CircleF
4285 862 CircleF
3117 1555 CircleF
4051 2249 CircleF
3584 271 CircleF
4518 965 CircleF
3000 1658 CircleF
3934 502 CircleF
3467 1196 CircleF
4401 1889 CircleF
3234 734 CircleF
4168 1427 CircleF
3701 2120 CircleF
4635 348 CircleF
2811 1042 CircleF
3745 1735 CircleF
3278 580 CircleF
4212 1273 CircleF
3044 1966 CircleF
3978 811 CircleF
3511 1504 CircleF
4445 2197 CircleF
2927 425 CircleF
3861 1119 CircleF
3394 1812 CircleF
4328 657 CircleF
3161 1350 CircleF
4095 2043 CircleF
3628 888 CircleF
4562 1581 CircleF
2869 2274 CircleF
3803 229 CircleF
3336 922 CircleF
4270 1615 CircleF
3102 460 CircleF
4036 1153 CircleF
3569 1846 CircleF
4503 691 CircleF
2986 1384 CircleF
3920 2077 CircleF
3453 306 CircleF
4387 999 CircleF
3219 1692 CircleF
4153 537 CircleF
3686 1230 CircleF
4620 1923 CircleF
2840 768 CircleF
3774 1461 CircleF
3307 2154 CircleF
4241 383 CircleF
3073 1076 CircleF
4007 1769 CircleF
3540 614 CircleF
4474 1307 CircleF
2957 2000 CircleF
3891 845 CircleF
3424 1538 CircleF
4358 2232 CircleF
3190 254 CircleF
4124 948 CircleF
3657 1641 CircleF
4591 485 CircleF
2898 1179 CircleF
3832 1872 CircleF
3365 716 CircleF
4299 1410 CircleF
3132 2103 CircleF
4066 331 CircleF
3599 1025 CircleF
4533 1718 CircleF
3015 562 CircleF
3949 1256 CircleF
3482 1949 CircleF
4416 793 CircleF
3248 1487 CircleF
4182 2180 CircleF
3715 408 CircleF
4649 1102 CircleF
2803 1795 CircleF
3737 639 CircleF
3270 1333 CircleF
4204 2026 CircleF
3037 871 CircleF
3971 1564 CircleF
3504 2257 CircleF
4438 280 CircleF
2920 973 CircleF
3854 1667 CircleF
3387 511 CircleF
4321 1204 CircleF
3154 1898 CircleF
4088 742 CircleF
3621 1435 CircleF
4555 2129 CircleF
2862 357 CircleF
3796 1050 CircleF
3329 1744 CircleF
4263 588 CircleF
3095 1281 CircleF
4029 1975 CircleF
3562 819 CircleF
4496 1513 CircleF
2978 2206 CircleF
3912 434 CircleF
3445 1127 CircleF
4379 1821 CircleF
3212 665 CircleF
4146 1358 CircleF
3679 2052 CircleF
4613 896 CircleF
2832 1590 CircleF
3766 2283 CircleF
3299 237 CircleF
4233 930 CircleF
3066 1624 CircleF
4000 468 CircleF
3533 1162 CircleF
4467 1855 CircleF
2949 699 CircleF
3883 1393 CircleF
3416 2086 CircleF
4350 314 CircleF
3183 1007 CircleF
4117 1701 CircleF
3650 545 CircleF
4584 1239 CircleF
2891 1932 CircleF
3825 776 CircleF
3358 1470 CircleF
4292 2163 CircleF
3124 391 CircleF
4058 1085 CircleF
3591 1778 CircleF
4525 622 CircleF
3008 1316 CircleF
3942 2009 CircleF
3475 853 CircleF
4409 1547 CircleF
3241 2240 CircleF
4175 263 CircleF
3708 956 CircleF
4642 1649 CircleF
2818 494 CircleF
3752 1187 CircleF
3285 1881 CircleF
4219 725 CircleF
3051 1418 CircleF
3985 2112 CircleF
3518 340 CircleF
4452 1033 CircleF
2935 1727 CircleF
3869 571 CircleF
3402 1264 CircleF
4336 1958 CircleF
3168 802 CircleF
4102 1495 CircleF
3635 2189 CircleF
4569 417 CircleF
2876 1110 CircleF
3810 1804 CircleF
3343 648 CircleF
4277 1341 CircleF
3110 2035 CircleF
4044 879 CircleF
3577 1572 CircleF
4511 2266 CircleF
2993 288 CircleF
3927 982 CircleF
3460 1675 CircleF
4394 520 CircleF
3227 1213 CircleF
4161 1906 CircleF
3694 751 CircleF
4628 1444 CircleF
2847 2137 CircleF
3781 366 CircleF
3314 1059 CircleF
4248 1752 CircleF
3081 597 CircleF
4015 1290 CircleF
3548 1983 CircleF
4482 828 CircleF
2964 1521 CircleF
3898 2214 CircleF
3431 443 CircleF
4365 1136 CircleF
3197 1829 CircleF
4131 674 CircleF
3664 1367 CircleF
4598 2060 CircleF
2905 905 CircleF
3839 1598 CircleF
3372 2291 CircleF
4306 223 CircleF
3139 916 CircleF
4073 1610 CircleF
3606 454 CircleF
4540 1147 CircleF
3022 1841 CircleF
3956 685 CircleF
3489 1378 CircleF
4423 2072 CircleF
3256 300 CircleF
4190 993 CircleF
3723 1687 CircleF
4657 531 CircleF
2800 1224 CircleF
3734 1918 CircleF
3267 762 CircleF
4201 1455 CircleF
3033 2149 CircleF
3967 377 CircleF
3500 1070 CircleF
4434 1764 CircleF
2916 608 CircleF
3850 1301 CircleF
3383 1995 CircleF
4317 839 CircleF
3150 1532 CircleF
4084 2226 CircleF
3617 249 CircleF
4551 942 CircleF
2858 1635 CircleF
3792 480 CircleF
3325 1173 CircleF
4259 1866 CircleF
3092 711 CircleF
4026 1404 CircleF
3559 2097 CircleF
4493 326 CircleF
2975 1019 CircleF
3909 1712 CircleF
3442 557 CircleF
4376 1250 CircleF
3208 1943 CircleF
4142 788 CircleF
3675 1481 CircleF
4609 2174 CircleF
2829 403 CircleF
3763 1096 CircleF
3296 1789 CircleF
4230 634 CircleF
3062 1327 CircleF
3996 2020 CircleF
3529 865 CircleF
4463 1558 CircleF
2946 2251 CircleF
3880 274 CircleF
3413 968 CircleF
4347 1661 CircleF
3179 505 CircleF
4113 1199 CircleF
3646 1892 CircleF
4580 736 CircleF
2887 1430 CircleF
3821 2123 CircleF
3354 351 CircleF
4288 1045 CircleF
3121 1738 CircleF
4055 582 CircleF
3588 1276 CircleF
4522 1969 CircleF
3004 813 CircleF
3938 1507 CircleF
3471 2200 CircleF
4405 428 CircleF
3237 1122 CircleF
4171 1815 CircleF
3704 659 CircleF
4638 1353 CircleF
2814 2046 CircleF
3748 891 CircleF
3281 1584 CircleF
4215 2277 CircleF
3048 231 CircleF
3982 925 CircleF
3515 1618 CircleF
4449 463 CircleF
2931 1156 CircleF
3865 1849 CircleF
3398 694 CircleF
4332 1387 CircleF
3164 2080 CircleF
4098 308 CircleF
3631 1002 CircleF
4565 1695 CircleF
2873 540 CircleF
3807 1233 CircleF
3340 1926 CircleF
4274 771 CircleF
3106 1464 CircleF
4040 2157 CircleF
3573 385 CircleF
4507 1079 CircleF
2989 1772 CircleF
3923 617 CircleF
3456 1310 CircleF
4390 2003 CircleF
3223 848 CircleF
4157 1541 CircleF
3690 2234 CircleF
4624 257 CircleF
2843 950 CircleF
3777 1644 CircleF
3310 488 CircleF
4244 1182 CircleF
3077 1875 CircleF
4011 719 CircleF
3544 1413 CircleF
4478 2106 CircleF
2960 334 CircleF
3894 1027 CircleF
3427 1721 CircleF
4361 565 CircleF
3194 1259 CircleF
4128 1952 CircleF
3661 796 CircleF
4595 1490 CircleF
2902 2183 CircleF
3836 411 CircleF
3369 1104 CircleF
4303 1798 CircleF
3135 642 CircleF
4069 1336 CircleF
3602 2029 CircleF
4536 873 CircleF
3019 1567 CircleF
3953 2260 CircleF
3486 283 CircleF
4420 976 CircleF
3252 1669 CircleF
4186 514 CircleF
3719 1207 CircleF
4653 1901 CircleF
2807 745 CircleF
3741 1438 CircleF
3274 2132 CircleF
4208 360 CircleF
3040 1053 CircleF
3974 1746 CircleF
3507 591 CircleF
4441 1284 CircleF
2924 1978 CircleF
3858 822 CircleF
3391 1515 CircleF
4325 2209 CircleF
3157 437 CircleF
4091 1130 CircleF
3624 1824 CircleF
4558 668 CircleF
2865 1361 CircleF
3799 2055 CircleF
3332 899 CircleF
4266 1592 CircleF
3099 2286 CircleF
4033 240 CircleF
3566 933 CircleF
4500 1627 CircleF
2982 471 CircleF
3916 1164 CircleF
3449 1858 CircleF
4383 702 CircleF
3216 1396 CircleF
4150 2089 CircleF
3683 317 CircleF
4617 1010 CircleF
2836 1704 CircleF
3770 548 CircleF
3303 1241 CircleF
4237 1935 CircleF
3070 779 CircleF
4004 1473 CircleF
3537 2166 CircleF
4471 394 CircleF
2953 1087 CircleF
3887 1781 CircleF
3420 625 CircleF
4354 1318 CircleF
3186 2012 CircleF
4120 856 CircleF
3653 1550 CircleF
4587 2243 CircleF
2895 266 CircleF
3829 959 CircleF
3362 1652 CircleF
4296 497 CircleF
3128 1190 CircleF
4062 1883 CircleF
3595 728 CircleF
4529 1421 CircleF
3011 2115 CircleF
3945 343 CircleF
3478 1036 CircleF
4412 1729 CircleF
3245 574 CircleF
4179 1267 CircleF
3712 1960 CircleF
4646 805 CircleF
2822 1498 CircleF
3756 2192 CircleF
3289 420 CircleF
4223 1113 CircleF
3055 1806 CircleF
3989 651 CircleF
3522 1344 CircleF
4456 2038 CircleF
2938 882 CircleF
3872 1575 CircleF
3405 2269 CircleF
4339 291 CircleF
3172 985 CircleF
4106 1678 CircleF
3639 522 CircleF
4573 1216 CircleF
2880 1909 CircleF
3814 754 CircleF
3347 1447 CircleF
4281 2140 CircleF
3113 368 CircleF
4047 1062 CircleF
3580 1755 CircleF
4514 599 CircleF
2997 1293 CircleF
3931 1986 CircleF
3464 831 CircleF
4398 1524 CircleF
3230 2217 CircleF
4164 445 CircleF
3697 1139 CircleF
4631 1832 CircleF
2851 677 CircleF
3785 1370 CircleF
3318 2063 CircleF
4252 908 CircleF
3084 1601 CircleF
4018 2294 CircleF
3551 226 CircleF
4485 919 CircleF
2967 1612 CircleF
3901 457 CircleF
3434 1150 CircleF
4368 1843 CircleF
3201 688 CircleF
4135 1381 CircleF
3668 2075 CircleF
4602 303 CircleF
2909 996 CircleF
3843 1689 CircleF
3376 534 CircleF
4310 1227 CircleF
2.000 UL
LTb
LCb setrgbcolor
[] 0 setdash
1.000 UL
LTb
2796 2300 N
0 -2080 V
1868 0 V
0 2080 V
-1868 0 V
Z stroke
1.000 UP
1.000 UL
LTb
1.000 UL
LTb
0.500 UL
LTa
LCa setrgbcolor
5196 220 M
1868 0 V
stroke
1.000 UL
LTb
LCb setrgbcolor
[] 0 setdash
5196 220 M
63 0 V
1805 0 R
-63 0 V
stroke
LTb
0.500 UL
LTa
LCa setrgbcolor
5196 636 M
1868 0 V
stroke
1.000 UL
LTb
LCb setrgbcolor
[] 0 setdash
5196 636 M
63 0 V
1805 0 R
-63 0 V
stroke
LTb
0.500 UL
LTa
LCa setrgbcolor
5196 1052 M
1868 0 V
stroke
1.000 UL
LTb
LCb setrgbcolor
[] 0 setdash
5196 1052 M
63 0 V
1805 0 R
-63 0 V
stroke
LTb
0.500 UL
LTa
LCa setrgbcolor
5196 1468 M
1868 0 V
stroke
1.000 UL
LTb
LCb setrgbcolor
[] 0 setdash
5196 1468 M
63 0 V
1805 0 R
-63 0 V
stroke
LTb
0.500 UL
LTa
LCa setrgbcolor
5196 1884 M
1868 0 V
stroke
1.000 UL
LTb
LCb setrgbcolor
[] 0 setdash
5196 1884 M
63 0 V
1805 0 R
-63 0 V
stroke
LTb
0.500 UL
LTa
LCa setrgbcolor
5196 2300 M
1868 0 V
stroke
1.000 UL
LTb
LCb setrgbcolor
[] 0 setdash
5196 2300 M
63 0 V
1805 0 R
-63 0 V
stroke
LTb
0.500 UL
LTa
LCa setrgbcolor
5196 220 M
0 2080 V
stroke
1.000 UL
LTb
LCb setrgbcolor
[] 0 setdash
5196 220 M
0 63 V
0 2017 R
0 -63 V
stroke
LTb
0.500 UL
LTa
LCa setrgbcolor
5570 220 M
0 2080 V
stroke
1.000 UL
LTb
LCb setrgbcolor
[] 0 setdash
5570 220 M
0 63 V
0 2017 R
0 -63 V
stroke
LTb
0.500 UL
LTa
LCa setrgbcolor
5943 220 M
0 2080 V
stroke
1.000 UL
LTb
LCb setrgbcolor
[] 0 setdash
5943 220 M
0 63 V
0 2017 R
0 -63 V
stroke
LTb
0.500 UL
LTa
LCa setrgbcolor
6317 220 M
0 2080 V
stroke
1.000 UL
LTb
LCb setrgbcolor
[] 0 setdash
6317 220 M
0 63 V
0 2017 R
0 -63 V
stroke
LTb
0.500 UL
LTa
LCa setrgbcolor
6690 220 M
0 2080 V
stroke
1.000 UL
LTb
LCb setrgbcolor
[] 0 setdash
6690 220 M
0 63 V
0 2017 R
0 -63 V
stroke
LTb
0.500 UL
LTa
LCa setrgbcolor
7064 220 M
0 2080 V
stroke
1.000 UL
LTb
LCb setrgbcolor
[] 0 setdash
7064 220 M
0 63 V
0 2017 R
0 -63 V
stroke
LTb
1.000 UL
LTb
5196 2300 N
0 -2080 V
1868 0 V
0 2080 V
-1868 0 V
Z stroke
1.000 UP
1.000 UL
LTb
0.500 UP
1.000 UL
LTb
0.00 0.00 0.00 C 5196 220 CircleF
6327 426 CircleF
5590 632 CircleF
6722 838 CircleF
5985 1044 CircleF
5248 1250 CircleF
6379 1456 CircleF
5642 1662 CircleF
6773 1868 CircleF
6037 2074 CircleF
5300 2280 CircleF
6431 406 CircleF
5694 612 CircleF
6825 817 CircleF
6088 1023 CircleF
5352 1229 CircleF
6483 1435 CircleF
5746 1641 CircleF
6877 1847 CircleF
6140 2053 CircleF
5403 2259 CircleF
6535 385 CircleF
5798 591 CircleF
6929 797 CircleF
6192 1003 CircleF
5455 1209 CircleF
6586 1415 CircleF
5850 1621 CircleF
6981 1827 CircleF
6244 2033 CircleF
5507 2239 CircleF
6638 365 CircleF
5901 571 CircleF
7033 777 CircleF
6296 983 CircleF
5559 1189 CircleF
6690 1395 CircleF
5953 1601 CircleF
5216 1807 CircleF
6348 2012 CircleF
5611 2218 CircleF
6742 344 CircleF
6005 550 CircleF
5268 756 CircleF
6399 962 CircleF
5663 1168 CircleF
6794 1374 CircleF
6057 1580 CircleF
5320 1786 CircleF
6451 1992 CircleF
5714 2198 CircleF
6846 324 CircleF
6109 530 CircleF
5372 736 CircleF
6503 942 CircleF
5766 1148 CircleF
6898 1354 CircleF
6161 1560 CircleF
5424 1766 CircleF
6555 1972 CircleF
5818 2178 CircleF
6949 304 CircleF
6213 510 CircleF
5476 716 CircleF
6607 921 CircleF
5870 1127 CircleF
7001 1333 CircleF
6264 1539 CircleF
5528 1745 CircleF
6659 1951 CircleF
5922 2157 CircleF
7053 283 CircleF
6316 489 CircleF
5579 695 CircleF
6711 901 CircleF
5974 1107 CircleF
5237 1313 CircleF
6368 1519 CircleF
5631 1725 CircleF
6762 1931 CircleF
6026 2137 CircleF
5289 263 CircleF
6420 469 CircleF
5683 675 CircleF
6814 881 CircleF
6077 1087 CircleF
5341 1293 CircleF
6472 1499 CircleF
5735 1705 CircleF
6866 1910 CircleF
6129 2116 CircleF
5392 242 CircleF
6524 448 CircleF
5787 654 CircleF
6918 860 CircleF
6181 1066 CircleF
5444 1272 CircleF
6575 1478 CircleF
5839 1684 CircleF
6970 1890 CircleF
6233 2096 CircleF
5496 222 CircleF
6627 428 CircleF
5890 634 CircleF
7022 840 CircleF
6285 1046 CircleF
5548 1252 CircleF
6679 1458 CircleF
5942 1664 CircleF
5206 1870 CircleF
6337 2076 CircleF
5600 2282 CircleF
6731 408 CircleF
5994 614 CircleF
5257 820 CircleF
6389 1025 CircleF
5652 1231 CircleF
6783 1437 CircleF
6046 1643 CircleF
5309 1849 CircleF
6440 2055 CircleF
5704 2261 CircleF
6835 387 CircleF
6098 593 CircleF
5361 799 CircleF
6492 1005 CircleF
5755 1211 CircleF
6887 1417 CircleF
6150 1623 CircleF
5413 1829 CircleF
6544 2035 CircleF
5807 2241 CircleF
6938 367 CircleF
6202 573 CircleF
5465 779 CircleF
6596 985 CircleF
5859 1191 CircleF
6990 1397 CircleF
6253 1603 CircleF
5517 1809 CircleF
6648 2014 CircleF
5911 2220 CircleF
7042 346 CircleF
6305 552 CircleF
5568 758 CircleF
6700 964 CircleF
5963 1170 CircleF
5226 1376 CircleF
6357 1582 CircleF
5620 1788 CircleF
6751 1994 CircleF
6015 2200 CircleF
5278 326 CircleF
6409 532 CircleF
5672 738 CircleF
6803 944 CircleF
6066 1150 CircleF
5330 1356 CircleF
6461 1562 CircleF
5724 1768 CircleF
6855 1974 CircleF
6118 2180 CircleF
5382 306 CircleF
6513 512 CircleF
5776 718 CircleF
6907 923 CircleF
6170 1129 CircleF
5433 1335 CircleF
6565 1541 CircleF
5828 1747 CircleF
6959 1953 CircleF
6222 2159 CircleF
5485 285 CircleF
6616 491 CircleF
5880 697 CircleF
7011 903 CircleF
6274 1109 CircleF
5537 1315 CircleF
6668 1521 CircleF
5931 1727 CircleF
7063 1933 CircleF
6326 2139 CircleF
5589 265 CircleF
6720 471 CircleF
5983 677 CircleF
5246 883 CircleF
6378 1089 CircleF
5641 1295 CircleF
6772 1501 CircleF
6035 1707 CircleF
5298 1913 CircleF
6429 2118 CircleF
5693 244 CircleF
6824 450 CircleF
6087 656 CircleF
5350 862 CircleF
6481 1068 CircleF
5744 1274 CircleF
6876 1480 CircleF
6139 1686 CircleF
5402 1892 CircleF
6533 2098 CircleF
5796 224 CircleF
6927 430 CircleF
6191 636 CircleF
5454 842 CircleF
6585 1048 CircleF
5848 1254 CircleF
6979 1460 CircleF
6242 1666 CircleF
5506 1872 CircleF
6637 2078 CircleF
5900 2284 CircleF
7031 410 CircleF
6294 616 CircleF
5558 822 CircleF
6689 1027 CircleF
5952 1233 CircleF
5215 1439 CircleF
6346 1645 CircleF
5609 1851 CircleF
6741 2057 CircleF
6004 2263 CircleF
5267 389 CircleF
6398 595 CircleF
5661 801 CircleF
6792 1007 CircleF
6056 1213 CircleF
5319 1419 CircleF
6450 1625 CircleF
5713 1831 CircleF
6844 2037 CircleF
6107 2243 CircleF
5371 369 CircleF
6502 575 CircleF
5765 781 CircleF
6896 987 CircleF
6159 1193 CircleF
5422 1399 CircleF
6554 1605 CircleF
5817 1811 CircleF
6948 2017 CircleF
6211 2222 CircleF
5474 348 CircleF
6605 554 CircleF
5869 760 CircleF
7000 966 CircleF
6263 1172 CircleF
5526 1378 CircleF
6657 1584 CircleF
5920 1790 CircleF
7052 1996 CircleF
6315 2202 CircleF
5578 328 CircleF
6709 534 CircleF
5972 740 CircleF
5235 946 CircleF
6367 1152 CircleF
5630 1358 CircleF
6761 1564 CircleF
6024 1770 CircleF
5287 1976 CircleF
6418 2182 CircleF
5682 308 CircleF
6813 514 CircleF
6076 720 CircleF
5339 926 CircleF
6470 1131 CircleF
5734 1337 CircleF
6865 1543 CircleF
6128 1749 CircleF
5391 1955 CircleF
6522 2161 CircleF
5785 287 CircleF
6917 493 CircleF
6180 699 CircleF
5443 905 CircleF
6574 1111 CircleF
5837 1317 CircleF
6968 1523 CircleF
6232 1729 CircleF
5495 1935 CircleF
6626 2141 CircleF
5889 267 CircleF
7020 473 CircleF
6283 679 CircleF
5547 885 CircleF
6678 1091 CircleF
5941 1297 CircleF
5204 1503 CircleF
6335 1709 CircleF
5598 1915 CircleF
6730 2120 CircleF
5993 246 CircleF
5256 452 CircleF
6387 658 CircleF
5650 864 CircleF
6781 1070 CircleF
6045 1276 CircleF
5308 1482 CircleF
6439 1688 CircleF
5702 1894 CircleF
6833 2100 CircleF
6096 226 CircleF
5360 432 CircleF
6491 638 CircleF
5754 844 CircleF
6885 1050 CircleF
6148 1256 CircleF
5411 1462 CircleF
6543 1668 CircleF
5806 1874 CircleF
6937 2080 CircleF
6200 2286 CircleF
5463 412 CircleF
6594 618 CircleF
5858 824 CircleF
6989 1030 CircleF
6252 1235 CircleF
5515 1441 CircleF
6646 1647 CircleF
5909 1853 CircleF
7041 2059 CircleF
6304 2265 CircleF
5567 391 CircleF
6698 597 CircleF
5961 803 CircleF
5225 1009 CircleF
6356 1215 CircleF
5619 1421 CircleF
6750 1627 CircleF
6013 1833 CircleF
5276 2039 CircleF
6408 2245 CircleF
5671 371 CircleF
6802 577 CircleF
6065 783 CircleF
5328 989 CircleF
6459 1195 CircleF
5723 1401 CircleF
6854 1607 CircleF
6117 1813 CircleF
5380 2019 CircleF
6511 2224 CircleF
5774 350 CircleF
6906 556 CircleF
6169 762 CircleF
5432 968 CircleF
6563 1174 CircleF
5826 1380 CircleF
6957 1586 CircleF
6221 1792 CircleF
5484 1998 CircleF
6615 2204 CircleF
5878 330 CircleF
7009 536 CircleF
6272 742 CircleF
5536 948 CircleF
6667 1154 CircleF
5930 1360 CircleF
7061 1566 CircleF
6324 1772 CircleF
5587 1978 CircleF
6719 2184 CircleF
5982 310 CircleF
5245 516 CircleF
6376 722 CircleF
5639 928 CircleF
6770 1133 CircleF
6034 1339 CircleF
5297 1545 CircleF
6428 1751 CircleF
5691 1957 CircleF
6822 2163 CircleF
6085 289 CircleF
5349 495 CircleF
6480 701 CircleF
5743 907 CircleF
6874 1113 CircleF
6137 1319 CircleF
5401 1525 CircleF
6532 1731 CircleF
5795 1937 CircleF
6926 2143 CircleF
6189 269 CircleF
5452 475 CircleF
6584 681 CircleF
5847 887 CircleF
6978 1093 CircleF
6241 1299 CircleF
5504 1505 CircleF
6635 1711 CircleF
5899 1917 CircleF
7030 2123 CircleF
6293 248 CircleF
5556 454 CircleF
6687 660 CircleF
5950 866 CircleF
5214 1072 CircleF
6345 1278 CircleF
5608 1484 CircleF
6739 1690 CircleF
6002 1896 CircleF
5265 2102 CircleF
6397 228 CircleF
5660 434 CircleF
6791 640 CircleF
6054 846 CircleF
5317 1052 CircleF
6448 1258 CircleF
5712 1464 CircleF
6843 1670 CircleF
6106 1876 CircleF
5369 2082 CircleF
6500 2288 CircleF
5763 414 CircleF
6895 620 CircleF
6158 826 CircleF
5421 1032 CircleF
6552 1237 CircleF
5815 1443 CircleF
6946 1649 CircleF
6210 1855 CircleF
5473 2061 CircleF
6604 2267 CircleF
5867 393 CircleF
6998 599 CircleF
6261 805 CircleF
5525 1011 CircleF
6656 1217 CircleF
5919 1423 CircleF
7050 1629 CircleF
6313 1835 CircleF
5577 2041 CircleF
6708 2247 CircleF
5971 373 CircleF
5234 579 CircleF
6365 785 CircleF
5628 991 CircleF
6760 1197 CircleF
6023 1403 CircleF
5286 1609 CircleF
6417 1815 CircleF
5680 2021 CircleF
6811 2227 CircleF
6075 352 CircleF
5338 558 CircleF
6469 764 CircleF
5732 970 CircleF
6863 1176 CircleF
6126 1382 CircleF
5390 1588 CircleF
6521 1794 CircleF
5784 2000 CircleF
6915 2206 CircleF
6178 332 CircleF
5441 538 CircleF
6573 744 CircleF
5836 950 CircleF
6967 1156 CircleF
6230 1362 CircleF
5493 1568 CircleF
6624 1774 CircleF
5888 1980 CircleF
7019 2186 CircleF
6282 312 CircleF
5545 518 CircleF
6676 724 CircleF
5939 930 CircleF
5203 1136 CircleF
6334 1341 CircleF
5597 1547 CircleF
6728 1753 CircleF
5991 1959 CircleF
5254 2165 CircleF
6386 291 CircleF
5649 497 CircleF
6780 703 CircleF
6043 909 CircleF
5306 1115 CircleF
6437 1321 CircleF
5701 1527 CircleF
6832 1733 CircleF
6095 1939 CircleF
5358 2145 CircleF
6489 271 CircleF
5753 477 CircleF
6884 683 CircleF
6147 889 CircleF
5410 1095 CircleF
6541 1301 CircleF
5804 1507 CircleF
6936 1713 CircleF
6199 1919 CircleF
5462 2125 CircleF
6593 250 CircleF
5856 456 CircleF
6987 662 CircleF
6251 868 CircleF
5514 1074 CircleF
2.000 UL
LTb
LCb setrgbcolor
[] 0 setdash
1.000 UL
LTb
5196 2300 N
0 -2080 V
1868 0 V
0 2080 V
-1868 0 V
Z stroke
1.000 UP
1.000 UL
LTb
stroke
grestore
end
showpage
%%Trailer
