% GNUPLOT: LaTeX picture with Postscript
\begingroup
  \makeatletter
  \providecommand\color[2][]{%
    \GenericError{(gnuplot) \space\space\space\@spaces}{%
      Package color not loaded in conjunction with
      terminal option `colourtext'%
    }{See the gnuplot documentation for explanation.%
    }{Either use 'blacktext' in gnuplot or load the package
      color.sty in LaTeX.}%
    \renewcommand\color[2][]{}%
  }%
  \providecommand\includegraphics[2][]{%
    \GenericError{(gnuplot) \space\space\space\@spaces}{%
      Package graphicx or graphics not loaded%
    }{See the gnuplot documentation for explanation.%
    }{The gnuplot epslatex terminal needs graphicx.sty or graphics.sty.}%
    \renewcommand\includegraphics[2][]{}%
  }%
  \providecommand\rotatebox[2]{#2}%
  \@ifundefined{ifGPcolor}{%
    \newif\ifGPcolor
    \GPcolorfalse
  }{}%
  \@ifundefined{ifGPblacktext}{%
    \newif\ifGPblacktext
    \GPblacktexttrue
  }{}%
  % define a \g@addto@macro without @ in the name:
  \let\gplgaddtomacro\g@addto@macro
  % define empty templates for all commands taking text:
  \gdef\gplbacktext{}%
  \gdef\gplfronttext{}%
  \makeatother
  \ifGPblacktext
    % no textcolor at all
    \def\colorrgb#1{}%
    \def\colorgray#1{}%
  \else
    % gray or color?
    \ifGPcolor
      \def\colorrgb#1{\color[rgb]{#1}}%
      \def\colorgray#1{\color[gray]{#1}}%
      \expandafter\def\csname LTw\endcsname{\color{white}}%
      \expandafter\def\csname LTb\endcsname{\color{black}}%
      \expandafter\def\csname LTa\endcsname{\color{black}}%
      \expandafter\def\csname LT0\endcsname{\color[rgb]{1,0,0}}%
      \expandafter\def\csname LT1\endcsname{\color[rgb]{0,1,0}}%
      \expandafter\def\csname LT2\endcsname{\color[rgb]{0,0,1}}%
      \expandafter\def\csname LT3\endcsname{\color[rgb]{1,0,1}}%
      \expandafter\def\csname LT4\endcsname{\color[rgb]{0,1,1}}%
      \expandafter\def\csname LT5\endcsname{\color[rgb]{1,1,0}}%
      \expandafter\def\csname LT6\endcsname{\color[rgb]{0,0,0}}%
      \expandafter\def\csname LT7\endcsname{\color[rgb]{1,0.3,0}}%
      \expandafter\def\csname LT8\endcsname{\color[rgb]{0.5,0.5,0.5}}%
    \else
      % gray
      \def\colorrgb#1{\color{black}}%
      \def\colorgray#1{\color[gray]{#1}}%
      \expandafter\def\csname LTw\endcsname{\color{white}}%
      \expandafter\def\csname LTb\endcsname{\color{black}}%
      \expandafter\def\csname LTa\endcsname{\color{black}}%
      \expandafter\def\csname LT0\endcsname{\color{black}}%
      \expandafter\def\csname LT1\endcsname{\color{black}}%
      \expandafter\def\csname LT2\endcsname{\color{black}}%
      \expandafter\def\csname LT3\endcsname{\color{black}}%
      \expandafter\def\csname LT4\endcsname{\color{black}}%
      \expandafter\def\csname LT5\endcsname{\color{black}}%
      \expandafter\def\csname LT6\endcsname{\color{black}}%
      \expandafter\def\csname LT7\endcsname{\color{black}}%
      \expandafter\def\csname LT8\endcsname{\color{black}}%
    \fi
  \fi
    \setlength{\unitlength}{0.0500bp}%
    \ifx\gptboxheight\undefined%
      \newlength{\gptboxheight}%
      \newlength{\gptboxwidth}%
      \newsavebox{\gptboxtext}%
    \fi%
    \setlength{\fboxrule}{0.5pt}%
    \setlength{\fboxsep}{1pt}%
\begin{picture}(5040.00,3528.00)%
    \gplgaddtomacro\gplbacktext{%
      \csname LTb\endcsname%
      \put(264,3263){\makebox(0,0)[r]{\strut{}1}}%
      \csname LTb\endcsname%
      \put(264,374){\makebox(0,0)[r]{\strut{}$10^{-7}$}}%
      \csname LTb\endcsname%
      \put(264,787){\makebox(0,0)[r]{\strut{}$10^{-6}$}}%
      \csname LTb\endcsname%
      \put(264,1199){\makebox(0,0)[r]{\strut{}$10^{-5}$}}%
      \csname LTb\endcsname%
      \put(264,1612){\makebox(0,0)[r]{\strut{}$10^{-4}$}}%
      \csname LTb\endcsname%
      \put(264,2025){\makebox(0,0)[r]{\strut{}$10^{-3}$}}%
      \csname LTb\endcsname%
      \put(264,2438){\makebox(0,0)[r]{\strut{}$10^{-2}$}}%
      \csname LTb\endcsname%
      \put(264,2850){\makebox(0,0)[r]{\strut{}$10^{-1}$}}%
      \csname LTb\endcsname%
      \put(396,154){\makebox(0,0){\strut{}10}}%
      \csname LTb\endcsname%
      \put(1245,154){\makebox(0,0){\strut{}$10^{2}$}}%
      \csname LTb\endcsname%
      \put(2095,154){\makebox(0,0){\strut{}$10^{3}$}}%
      \csname LTb\endcsname%
      \put(2944,154){\makebox(0,0){\strut{}$10^{4}$}}%
      \csname LTb\endcsname%
      \put(3794,154){\makebox(0,0){\strut{}$10^{5}$}}%
      \csname LTb\endcsname%
      \put(4643,154){\makebox(0,0){\strut{}$10^{6}$}}%
    }%
    \gplgaddtomacro\gplfronttext{%
      \csname LTb\endcsname%
      \put(-506,1818){\rotatebox{-270}{\makebox(0,0){\strut{}$\delta I_{2D}$}}}%
      \put(2519,-176){\makebox(0,0){\strut{}$N$}}%
      \csname LTb\endcsname%
      \put(1320,1207){\makebox(0,0)[r]{\strut{}Plain}}%
      \csname LTb\endcsname%
      \put(1320,987){\makebox(0,0)[r]{\strut{}Halton}}%
      \csname LTb\endcsname%
      \put(1320,767){\makebox(0,0)[r]{\strut{}Lattice}}%
      \csname LTb\endcsname%
      \put(1320,547){\makebox(0,0)[r]{\strut{}$\propto 1/\sqrt{N}$}}%
    }%
    \gplbacktext
    \put(0,0){\includegraphics{error_mc_2D}}%
    \gplfronttext
  \end{picture}%
\endgroup
