%!PS-Adobe-2.0 EPSF-2.0
%%Title: error_mc_3D.plt
%%Creator: gnuplot 5.0 patchlevel 3
%%CreationDate: Sat Jun 23 17:09:47 2018
%%DocumentFonts: 
%%BoundingBox: 50 50 302 226
%%EndComments
%%BeginProlog
/gnudict 256 dict def
gnudict begin
%
% The following true/false flags may be edited by hand if desired.
% The unit line width and grayscale image gamma correction may also be changed.
%
/Color false def
/Blacktext true def
/Solid false def
/Dashlength 1 def
/Landscape false def
/Level1 false def
/Level3 false def
/Rounded false def
/ClipToBoundingBox false def
/SuppressPDFMark false def
/TransparentPatterns false def
/gnulinewidth 5.000 def
/userlinewidth gnulinewidth def
/Gamma 1.0 def
/BackgroundColor {-1.000 -1.000 -1.000} def
%
/vshift -73 def
/dl1 {
  10.0 Dashlength userlinewidth gnulinewidth div mul mul mul
  Rounded { currentlinewidth 0.75 mul sub dup 0 le { pop 0.01 } if } if
} def
/dl2 {
  10.0 Dashlength userlinewidth gnulinewidth div mul mul mul
  Rounded { currentlinewidth 0.75 mul add } if
} def
/hpt_ 31.5 def
/vpt_ 31.5 def
/hpt hpt_ def
/vpt vpt_ def
/doclip {
  ClipToBoundingBox {
    newpath 50 50 moveto 302 50 lineto 302 226 lineto 50 226 lineto closepath
    clip
  } if
} def
%
% Gnuplot Prolog Version 5.1 (Oct 2015)
%
%/SuppressPDFMark true def
%
/M {moveto} bind def
/L {lineto} bind def
/R {rmoveto} bind def
/V {rlineto} bind def
/N {newpath moveto} bind def
/Z {closepath} bind def
/C {setrgbcolor} bind def
/f {rlineto fill} bind def
/g {setgray} bind def
/Gshow {show} def   % May be redefined later in the file to support UTF-8
/vpt2 vpt 2 mul def
/hpt2 hpt 2 mul def
/Lshow {currentpoint stroke M 0 vshift R 
	Blacktext {gsave 0 setgray textshow grestore} {textshow} ifelse} def
/Rshow {currentpoint stroke M dup stringwidth pop neg vshift R
	Blacktext {gsave 0 setgray textshow grestore} {textshow} ifelse} def
/Cshow {currentpoint stroke M dup stringwidth pop -2 div vshift R 
	Blacktext {gsave 0 setgray textshow grestore} {textshow} ifelse} def
/UP {dup vpt_ mul /vpt exch def hpt_ mul /hpt exch def
  /hpt2 hpt 2 mul def /vpt2 vpt 2 mul def} def
/DL {Color {setrgbcolor Solid {pop []} if 0 setdash}
 {pop pop pop 0 setgray Solid {pop []} if 0 setdash} ifelse} def
/BL {stroke userlinewidth 2 mul setlinewidth
	Rounded {1 setlinejoin 1 setlinecap} if} def
/AL {stroke userlinewidth 2 div setlinewidth
	Rounded {1 setlinejoin 1 setlinecap} if} def
/UL {dup gnulinewidth mul /userlinewidth exch def
	dup 1 lt {pop 1} if 10 mul /udl exch def} def
/PL {stroke userlinewidth setlinewidth
	Rounded {1 setlinejoin 1 setlinecap} if} def
3.8 setmiterlimit
% Classic Line colors (version 5.0)
/LCw {1 1 1} def
/LCb {0 0 0} def
/LCa {0 0 0} def
/LC0 {1 0 0} def
/LC1 {0 1 0} def
/LC2 {0 0 1} def
/LC3 {1 0 1} def
/LC4 {0 1 1} def
/LC5 {1 1 0} def
/LC6 {0 0 0} def
/LC7 {1 0.3 0} def
/LC8 {0.5 0.5 0.5} def
% Default dash patterns (version 5.0)
/LTB {BL [] LCb DL} def
/LTw {PL [] 1 setgray} def
/LTb {PL [] LCb DL} def
/LTa {AL [1 udl mul 2 udl mul] 0 setdash LCa setrgbcolor} def
/LT0 {PL [] LC0 DL} def
/LT1 {PL [2 dl1 3 dl2] LC1 DL} def
/LT2 {PL [1 dl1 1.5 dl2] LC2 DL} def
/LT3 {PL [6 dl1 2 dl2 1 dl1 2 dl2] LC3 DL} def
/LT4 {PL [1 dl1 2 dl2 6 dl1 2 dl2 1 dl1 2 dl2] LC4 DL} def
/LT5 {PL [4 dl1 2 dl2] LC5 DL} def
/LT6 {PL [1.5 dl1 1.5 dl2 1.5 dl1 1.5 dl2 1.5 dl1 6 dl2] LC6 DL} def
/LT7 {PL [3 dl1 3 dl2 1 dl1 3 dl2] LC7 DL} def
/LT8 {PL [2 dl1 2 dl2 2 dl1 6 dl2] LC8 DL} def
/SL {[] 0 setdash} def
/Pnt {stroke [] 0 setdash gsave 1 setlinecap M 0 0 V stroke grestore} def
/Dia {stroke [] 0 setdash 2 copy vpt add M
  hpt neg vpt neg V hpt vpt neg V
  hpt vpt V hpt neg vpt V closepath stroke
  Pnt} def
/Pls {stroke [] 0 setdash vpt sub M 0 vpt2 V
  currentpoint stroke M
  hpt neg vpt neg R hpt2 0 V stroke
 } def
/Box {stroke [] 0 setdash 2 copy exch hpt sub exch vpt add M
  0 vpt2 neg V hpt2 0 V 0 vpt2 V
  hpt2 neg 0 V closepath stroke
  Pnt} def
/Crs {stroke [] 0 setdash exch hpt sub exch vpt add M
  hpt2 vpt2 neg V currentpoint stroke M
  hpt2 neg 0 R hpt2 vpt2 V stroke} def
/TriU {stroke [] 0 setdash 2 copy vpt 1.12 mul add M
  hpt neg vpt -1.62 mul V
  hpt 2 mul 0 V
  hpt neg vpt 1.62 mul V closepath stroke
  Pnt} def
/Star {2 copy Pls Crs} def
/BoxF {stroke [] 0 setdash exch hpt sub exch vpt add M
  0 vpt2 neg V hpt2 0 V 0 vpt2 V
  hpt2 neg 0 V closepath fill} def
/TriUF {stroke [] 0 setdash vpt 1.12 mul add M
  hpt neg vpt -1.62 mul V
  hpt 2 mul 0 V
  hpt neg vpt 1.62 mul V closepath fill} def
/TriD {stroke [] 0 setdash 2 copy vpt 1.12 mul sub M
  hpt neg vpt 1.62 mul V
  hpt 2 mul 0 V
  hpt neg vpt -1.62 mul V closepath stroke
  Pnt} def
/TriDF {stroke [] 0 setdash vpt 1.12 mul sub M
  hpt neg vpt 1.62 mul V
  hpt 2 mul 0 V
  hpt neg vpt -1.62 mul V closepath fill} def
/DiaF {stroke [] 0 setdash vpt add M
  hpt neg vpt neg V hpt vpt neg V
  hpt vpt V hpt neg vpt V closepath fill} def
/Pent {stroke [] 0 setdash 2 copy gsave
  translate 0 hpt M 4 {72 rotate 0 hpt L} repeat
  closepath stroke grestore Pnt} def
/PentF {stroke [] 0 setdash gsave
  translate 0 hpt M 4 {72 rotate 0 hpt L} repeat
  closepath fill grestore} def
/Circle {stroke [] 0 setdash 2 copy
  hpt 0 360 arc stroke Pnt} def
/CircleF {stroke [] 0 setdash hpt 0 360 arc fill} def
/C0 {BL [] 0 setdash 2 copy moveto vpt 90 450 arc} bind def
/C1 {BL [] 0 setdash 2 copy moveto
	2 copy vpt 0 90 arc closepath fill
	vpt 0 360 arc closepath} bind def
/C2 {BL [] 0 setdash 2 copy moveto
	2 copy vpt 90 180 arc closepath fill
	vpt 0 360 arc closepath} bind def
/C3 {BL [] 0 setdash 2 copy moveto
	2 copy vpt 0 180 arc closepath fill
	vpt 0 360 arc closepath} bind def
/C4 {BL [] 0 setdash 2 copy moveto
	2 copy vpt 180 270 arc closepath fill
	vpt 0 360 arc closepath} bind def
/C5 {BL [] 0 setdash 2 copy moveto
	2 copy vpt 0 90 arc
	2 copy moveto
	2 copy vpt 180 270 arc closepath fill
	vpt 0 360 arc} bind def
/C6 {BL [] 0 setdash 2 copy moveto
	2 copy vpt 90 270 arc closepath fill
	vpt 0 360 arc closepath} bind def
/C7 {BL [] 0 setdash 2 copy moveto
	2 copy vpt 0 270 arc closepath fill
	vpt 0 360 arc closepath} bind def
/C8 {BL [] 0 setdash 2 copy moveto
	2 copy vpt 270 360 arc closepath fill
	vpt 0 360 arc closepath} bind def
/C9 {BL [] 0 setdash 2 copy moveto
	2 copy vpt 270 450 arc closepath fill
	vpt 0 360 arc closepath} bind def
/C10 {BL [] 0 setdash 2 copy 2 copy moveto vpt 270 360 arc closepath fill
	2 copy moveto
	2 copy vpt 90 180 arc closepath fill
	vpt 0 360 arc closepath} bind def
/C11 {BL [] 0 setdash 2 copy moveto
	2 copy vpt 0 180 arc closepath fill
	2 copy moveto
	2 copy vpt 270 360 arc closepath fill
	vpt 0 360 arc closepath} bind def
/C12 {BL [] 0 setdash 2 copy moveto
	2 copy vpt 180 360 arc closepath fill
	vpt 0 360 arc closepath} bind def
/C13 {BL [] 0 setdash 2 copy moveto
	2 copy vpt 0 90 arc closepath fill
	2 copy moveto
	2 copy vpt 180 360 arc closepath fill
	vpt 0 360 arc closepath} bind def
/C14 {BL [] 0 setdash 2 copy moveto
	2 copy vpt 90 360 arc closepath fill
	vpt 0 360 arc} bind def
/C15 {BL [] 0 setdash 2 copy vpt 0 360 arc closepath fill
	vpt 0 360 arc closepath} bind def
/Rec {newpath 4 2 roll moveto 1 index 0 rlineto 0 exch rlineto
	neg 0 rlineto closepath} bind def
/Square {dup Rec} bind def
/Bsquare {vpt sub exch vpt sub exch vpt2 Square} bind def
/S0 {BL [] 0 setdash 2 copy moveto 0 vpt rlineto BL Bsquare} bind def
/S1 {BL [] 0 setdash 2 copy vpt Square fill Bsquare} bind def
/S2 {BL [] 0 setdash 2 copy exch vpt sub exch vpt Square fill Bsquare} bind def
/S3 {BL [] 0 setdash 2 copy exch vpt sub exch vpt2 vpt Rec fill Bsquare} bind def
/S4 {BL [] 0 setdash 2 copy exch vpt sub exch vpt sub vpt Square fill Bsquare} bind def
/S5 {BL [] 0 setdash 2 copy 2 copy vpt Square fill
	exch vpt sub exch vpt sub vpt Square fill Bsquare} bind def
/S6 {BL [] 0 setdash 2 copy exch vpt sub exch vpt sub vpt vpt2 Rec fill Bsquare} bind def
/S7 {BL [] 0 setdash 2 copy exch vpt sub exch vpt sub vpt vpt2 Rec fill
	2 copy vpt Square fill Bsquare} bind def
/S8 {BL [] 0 setdash 2 copy vpt sub vpt Square fill Bsquare} bind def
/S9 {BL [] 0 setdash 2 copy vpt sub vpt vpt2 Rec fill Bsquare} bind def
/S10 {BL [] 0 setdash 2 copy vpt sub vpt Square fill 2 copy exch vpt sub exch vpt Square fill
	Bsquare} bind def
/S11 {BL [] 0 setdash 2 copy vpt sub vpt Square fill 2 copy exch vpt sub exch vpt2 vpt Rec fill
	Bsquare} bind def
/S12 {BL [] 0 setdash 2 copy exch vpt sub exch vpt sub vpt2 vpt Rec fill Bsquare} bind def
/S13 {BL [] 0 setdash 2 copy exch vpt sub exch vpt sub vpt2 vpt Rec fill
	2 copy vpt Square fill Bsquare} bind def
/S14 {BL [] 0 setdash 2 copy exch vpt sub exch vpt sub vpt2 vpt Rec fill
	2 copy exch vpt sub exch vpt Square fill Bsquare} bind def
/S15 {BL [] 0 setdash 2 copy Bsquare fill Bsquare} bind def
/D0 {gsave translate 45 rotate 0 0 S0 stroke grestore} bind def
/D1 {gsave translate 45 rotate 0 0 S1 stroke grestore} bind def
/D2 {gsave translate 45 rotate 0 0 S2 stroke grestore} bind def
/D3 {gsave translate 45 rotate 0 0 S3 stroke grestore} bind def
/D4 {gsave translate 45 rotate 0 0 S4 stroke grestore} bind def
/D5 {gsave translate 45 rotate 0 0 S5 stroke grestore} bind def
/D6 {gsave translate 45 rotate 0 0 S6 stroke grestore} bind def
/D7 {gsave translate 45 rotate 0 0 S7 stroke grestore} bind def
/D8 {gsave translate 45 rotate 0 0 S8 stroke grestore} bind def
/D9 {gsave translate 45 rotate 0 0 S9 stroke grestore} bind def
/D10 {gsave translate 45 rotate 0 0 S10 stroke grestore} bind def
/D11 {gsave translate 45 rotate 0 0 S11 stroke grestore} bind def
/D12 {gsave translate 45 rotate 0 0 S12 stroke grestore} bind def
/D13 {gsave translate 45 rotate 0 0 S13 stroke grestore} bind def
/D14 {gsave translate 45 rotate 0 0 S14 stroke grestore} bind def
/D15 {gsave translate 45 rotate 0 0 S15 stroke grestore} bind def
/DiaE {stroke [] 0 setdash vpt add M
  hpt neg vpt neg V hpt vpt neg V
  hpt vpt V hpt neg vpt V closepath stroke} def
/BoxE {stroke [] 0 setdash exch hpt sub exch vpt add M
  0 vpt2 neg V hpt2 0 V 0 vpt2 V
  hpt2 neg 0 V closepath stroke} def
/TriUE {stroke [] 0 setdash vpt 1.12 mul add M
  hpt neg vpt -1.62 mul V
  hpt 2 mul 0 V
  hpt neg vpt 1.62 mul V closepath stroke} def
/TriDE {stroke [] 0 setdash vpt 1.12 mul sub M
  hpt neg vpt 1.62 mul V
  hpt 2 mul 0 V
  hpt neg vpt -1.62 mul V closepath stroke} def
/PentE {stroke [] 0 setdash gsave
  translate 0 hpt M 4 {72 rotate 0 hpt L} repeat
  closepath stroke grestore} def
/CircE {stroke [] 0 setdash 
  hpt 0 360 arc stroke} def
/Opaque {gsave closepath 1 setgray fill grestore 0 setgray closepath} def
/DiaW {stroke [] 0 setdash vpt add M
  hpt neg vpt neg V hpt vpt neg V
  hpt vpt V hpt neg vpt V Opaque stroke} def
/BoxW {stroke [] 0 setdash exch hpt sub exch vpt add M
  0 vpt2 neg V hpt2 0 V 0 vpt2 V
  hpt2 neg 0 V Opaque stroke} def
/TriUW {stroke [] 0 setdash vpt 1.12 mul add M
  hpt neg vpt -1.62 mul V
  hpt 2 mul 0 V
  hpt neg vpt 1.62 mul V Opaque stroke} def
/TriDW {stroke [] 0 setdash vpt 1.12 mul sub M
  hpt neg vpt 1.62 mul V
  hpt 2 mul 0 V
  hpt neg vpt -1.62 mul V Opaque stroke} def
/PentW {stroke [] 0 setdash gsave
  translate 0 hpt M 4 {72 rotate 0 hpt L} repeat
  Opaque stroke grestore} def
/CircW {stroke [] 0 setdash 
  hpt 0 360 arc Opaque stroke} def
/BoxFill {gsave Rec 1 setgray fill grestore} def
/Density {
  /Fillden exch def
  currentrgbcolor
  /ColB exch def /ColG exch def /ColR exch def
  /ColR ColR Fillden mul Fillden sub 1 add def
  /ColG ColG Fillden mul Fillden sub 1 add def
  /ColB ColB Fillden mul Fillden sub 1 add def
  ColR ColG ColB setrgbcolor} def
/BoxColFill {gsave Rec PolyFill} def
/PolyFill {gsave Density fill grestore grestore} def
/h {rlineto rlineto rlineto gsave closepath fill grestore} bind def
%
% PostScript Level 1 Pattern Fill routine for rectangles
% Usage: x y w h s a XX PatternFill
%	x,y = lower left corner of box to be filled
%	w,h = width and height of box
%	  a = angle in degrees between lines and x-axis
%	 XX = 0/1 for no/yes cross-hatch
%
/PatternFill {gsave /PFa [ 9 2 roll ] def
  PFa 0 get PFa 2 get 2 div add PFa 1 get PFa 3 get 2 div add translate
  PFa 2 get -2 div PFa 3 get -2 div PFa 2 get PFa 3 get Rec
  TransparentPatterns {} {gsave 1 setgray fill grestore} ifelse
  clip
  currentlinewidth 0.5 mul setlinewidth
  /PFs PFa 2 get dup mul PFa 3 get dup mul add sqrt def
  0 0 M PFa 5 get rotate PFs -2 div dup translate
  0 1 PFs PFa 4 get div 1 add floor cvi
	{PFa 4 get mul 0 M 0 PFs V} for
  0 PFa 6 get ne {
	0 1 PFs PFa 4 get div 1 add floor cvi
	{PFa 4 get mul 0 2 1 roll M PFs 0 V} for
 } if
  stroke grestore} def
%
/languagelevel where
 {pop languagelevel} {1} ifelse
dup 2 lt
	{/InterpretLevel1 true def
	 /InterpretLevel3 false def}
	{/InterpretLevel1 Level1 def
	 2 gt
	    {/InterpretLevel3 Level3 def}
	    {/InterpretLevel3 false def}
	 ifelse }
 ifelse
%
% PostScript level 2 pattern fill definitions
%
/Level2PatternFill {
/Tile8x8 {/PaintType 2 /PatternType 1 /TilingType 1 /BBox [0 0 8 8] /XStep 8 /YStep 8}
	bind def
/KeepColor {currentrgbcolor [/Pattern /DeviceRGB] setcolorspace} bind def
<< Tile8x8
 /PaintProc {0.5 setlinewidth pop 0 0 M 8 8 L 0 8 M 8 0 L stroke} 
>> matrix makepattern
/Pat1 exch def
<< Tile8x8
 /PaintProc {0.5 setlinewidth pop 0 0 M 8 8 L 0 8 M 8 0 L stroke
	0 4 M 4 8 L 8 4 L 4 0 L 0 4 L stroke}
>> matrix makepattern
/Pat2 exch def
<< Tile8x8
 /PaintProc {0.5 setlinewidth pop 0 0 M 0 8 L
	8 8 L 8 0 L 0 0 L fill}
>> matrix makepattern
/Pat3 exch def
<< Tile8x8
 /PaintProc {0.5 setlinewidth pop -4 8 M 8 -4 L
	0 12 M 12 0 L stroke}
>> matrix makepattern
/Pat4 exch def
<< Tile8x8
 /PaintProc {0.5 setlinewidth pop -4 0 M 8 12 L
	0 -4 M 12 8 L stroke}
>> matrix makepattern
/Pat5 exch def
<< Tile8x8
 /PaintProc {0.5 setlinewidth pop -2 8 M 4 -4 L
	0 12 M 8 -4 L 4 12 M 10 0 L stroke}
>> matrix makepattern
/Pat6 exch def
<< Tile8x8
 /PaintProc {0.5 setlinewidth pop -2 0 M 4 12 L
	0 -4 M 8 12 L 4 -4 M 10 8 L stroke}
>> matrix makepattern
/Pat7 exch def
<< Tile8x8
 /PaintProc {0.5 setlinewidth pop 8 -2 M -4 4 L
	12 0 M -4 8 L 12 4 M 0 10 L stroke}
>> matrix makepattern
/Pat8 exch def
<< Tile8x8
 /PaintProc {0.5 setlinewidth pop 0 -2 M 12 4 L
	-4 0 M 12 8 L -4 4 M 8 10 L stroke}
>> matrix makepattern
/Pat9 exch def
/Pattern1 {PatternBgnd KeepColor Pat1 setpattern} bind def
/Pattern2 {PatternBgnd KeepColor Pat2 setpattern} bind def
/Pattern3 {PatternBgnd KeepColor Pat3 setpattern} bind def
/Pattern4 {PatternBgnd KeepColor Landscape {Pat5} {Pat4} ifelse setpattern} bind def
/Pattern5 {PatternBgnd KeepColor Landscape {Pat4} {Pat5} ifelse setpattern} bind def
/Pattern6 {PatternBgnd KeepColor Landscape {Pat9} {Pat6} ifelse setpattern} bind def
/Pattern7 {PatternBgnd KeepColor Landscape {Pat8} {Pat7} ifelse setpattern} bind def
} def
%
%
%End of PostScript Level 2 code
%
/PatternBgnd {
  TransparentPatterns {} {gsave 1 setgray fill grestore} ifelse
} def
%
% Substitute for Level 2 pattern fill codes with
% grayscale if Level 2 support is not selected.
%
/Level1PatternFill {
/Pattern1 {0.250 Density} bind def
/Pattern2 {0.500 Density} bind def
/Pattern3 {0.750 Density} bind def
/Pattern4 {0.125 Density} bind def
/Pattern5 {0.375 Density} bind def
/Pattern6 {0.625 Density} bind def
/Pattern7 {0.875 Density} bind def
} def
%
% Now test for support of Level 2 code
%
Level1 {Level1PatternFill} {Level2PatternFill} ifelse
%
/Symbol-Oblique /Symbol findfont [1 0 .167 1 0 0] makefont
dup length dict begin {1 index /FID eq {pop pop} {def} ifelse} forall
currentdict end definefont pop
%
Level1 SuppressPDFMark or 
{} {
/SDict 10 dict def
systemdict /pdfmark known not {
  userdict /pdfmark systemdict /cleartomark get put
} if
SDict begin [
  /Title (error_mc_3D.plt)
  /Subject (gnuplot plot)
  /Creator (gnuplot 5.0 patchlevel 3)
  /Author (kasper)
%  /Producer (gnuplot)
%  /Keywords ()
  /CreationDate (Sat Jun 23 17:09:47 2018)
  /DOCINFO pdfmark
end
} ifelse
%
% Support for boxed text - Ethan A Merritt May 2005
%
/InitTextBox { userdict /TBy2 3 -1 roll put userdict /TBx2 3 -1 roll put
           userdict /TBy1 3 -1 roll put userdict /TBx1 3 -1 roll put
	   /Boxing true def } def
/ExtendTextBox { Boxing
    { gsave dup false charpath pathbbox
      dup TBy2 gt {userdict /TBy2 3 -1 roll put} {pop} ifelse
      dup TBx2 gt {userdict /TBx2 3 -1 roll put} {pop} ifelse
      dup TBy1 lt {userdict /TBy1 3 -1 roll put} {pop} ifelse
      dup TBx1 lt {userdict /TBx1 3 -1 roll put} {pop} ifelse
      grestore } if } def
/PopTextBox { newpath TBx1 TBxmargin sub TBy1 TBymargin sub M
               TBx1 TBxmargin sub TBy2 TBymargin add L
	       TBx2 TBxmargin add TBy2 TBymargin add L
	       TBx2 TBxmargin add TBy1 TBymargin sub L closepath } def
/DrawTextBox { PopTextBox stroke /Boxing false def} def
/FillTextBox { gsave PopTextBox 1 1 1 setrgbcolor fill grestore /Boxing false def} def
0 0 0 0 InitTextBox
/TBxmargin 20 def
/TBymargin 20 def
/Boxing false def
/textshow { ExtendTextBox Gshow } def
%
% redundant definitions for compatibility with prologue.ps older than 5.0.2
/LTB {BL [] LCb DL} def
/LTb {PL [] LCb DL} def
end
%%EndProlog
%%Page: 1 1
gnudict begin
gsave
doclip
50 50 translate
0.050 0.050 scale
0 setgray
newpath
1.000 UL
LTb
LCb setrgbcolor
[] 0 setdash
0.500 UL
LTa
LCa setrgbcolor
396 3263 M
4247 0 V
stroke
1.000 UL
LTb
LCb setrgbcolor
[] 0 setdash
396 3263 M
63 0 V
4184 0 R
-63 0 V
stroke
LTb
0.500 UL
LTa
LCa setrgbcolor
396 374 M
4247 0 V
stroke
1.000 UL
LTb
LCb setrgbcolor
[] 0 setdash
396 374 M
63 0 V
4184 0 R
-63 0 V
stroke
LTb
396 498 M
31 0 V
4216 0 R
-31 0 V
396 662 M
31 0 V
4216 0 R
-31 0 V
396 747 M
31 0 V
4216 0 R
-31 0 V
stroke
0.500 UL
LTa
LCa setrgbcolor
396 787 M
132 0 V
1647 0 R
2468 0 V
stroke
1.000 UL
LTb
LCb setrgbcolor
[] 0 setdash
396 787 M
63 0 V
4184 0 R
-63 0 V
stroke
LTb
396 911 M
31 0 V
4216 0 R
-31 0 V
396 1075 M
31 0 V
4216 0 R
-31 0 V
396 1159 M
31 0 V
4216 0 R
-31 0 V
stroke
0.500 UL
LTa
LCa setrgbcolor
396 1199 M
132 0 V
1647 0 R
2468 0 V
stroke
1.000 UL
LTb
LCb setrgbcolor
[] 0 setdash
396 1199 M
63 0 V
4184 0 R
-63 0 V
stroke
LTb
396 1324 M
31 0 V
4216 0 R
-31 0 V
396 1488 M
31 0 V
4216 0 R
-31 0 V
396 1572 M
31 0 V
4216 0 R
-31 0 V
stroke
0.500 UL
LTa
LCa setrgbcolor
396 1612 M
4247 0 V
stroke
1.000 UL
LTb
LCb setrgbcolor
[] 0 setdash
396 1612 M
63 0 V
4184 0 R
-63 0 V
stroke
LTb
396 1736 M
31 0 V
4216 0 R
-31 0 V
396 1901 M
31 0 V
4216 0 R
-31 0 V
396 1985 M
31 0 V
4216 0 R
-31 0 V
stroke
0.500 UL
LTa
LCa setrgbcolor
396 2025 M
4247 0 V
stroke
1.000 UL
LTb
LCb setrgbcolor
[] 0 setdash
396 2025 M
63 0 V
4184 0 R
-63 0 V
stroke
LTb
396 2149 M
31 0 V
4216 0 R
-31 0 V
396 2313 M
31 0 V
4216 0 R
-31 0 V
396 2398 M
31 0 V
4216 0 R
-31 0 V
stroke
0.500 UL
LTa
LCa setrgbcolor
396 2438 M
4247 0 V
stroke
1.000 UL
LTb
LCb setrgbcolor
[] 0 setdash
396 2438 M
63 0 V
4184 0 R
-63 0 V
stroke
LTb
396 2562 M
31 0 V
4216 0 R
-31 0 V
396 2726 M
31 0 V
4216 0 R
-31 0 V
396 2810 M
31 0 V
4216 0 R
-31 0 V
stroke
0.500 UL
LTa
LCa setrgbcolor
396 2850 M
4247 0 V
stroke
1.000 UL
LTb
LCb setrgbcolor
[] 0 setdash
396 2850 M
63 0 V
4184 0 R
-63 0 V
stroke
LTb
396 2975 M
31 0 V
4216 0 R
-31 0 V
396 3139 M
31 0 V
4216 0 R
-31 0 V
396 3223 M
31 0 V
4216 0 R
-31 0 V
stroke
0.500 UL
LTa
LCa setrgbcolor
396 3263 M
4247 0 V
stroke
1.000 UL
LTb
LCb setrgbcolor
[] 0 setdash
396 3263 M
63 0 V
4184 0 R
-63 0 V
stroke
0.500 UL
LTa
LCa setrgbcolor
396 374 M
0 2889 V
stroke
1.000 UL
LTb
LCb setrgbcolor
[] 0 setdash
396 374 M
0 63 V
0 2826 R
0 -63 V
stroke
LTb
0.500 UL
LTa
LCa setrgbcolor
396 374 M
0 2889 V
stroke
1.000 UL
LTb
LCb setrgbcolor
[] 0 setdash
396 374 M
0 63 V
0 2826 R
0 -63 V
652 374 M
0 31 V
0 2858 R
0 -31 V
990 374 M
0 31 V
0 2858 R
0 -31 V
1163 374 M
0 31 V
0 2858 R
0 -31 V
stroke
0.500 UL
LTa
LCa setrgbcolor
1245 374 M
0 63 V
0 880 R
0 1946 V
stroke
1.000 UL
LTb
LCb setrgbcolor
[] 0 setdash
1245 374 M
0 63 V
0 2826 R
0 -63 V
stroke
LTb
1501 374 M
0 31 V
0 2858 R
0 -31 V
1839 374 M
0 31 V
0 2858 R
0 -31 V
2012 374 M
0 31 V
0 2858 R
0 -31 V
stroke
0.500 UL
LTa
LCa setrgbcolor
2095 374 M
0 63 V
0 880 R
0 1946 V
stroke
1.000 UL
LTb
LCb setrgbcolor
[] 0 setdash
2095 374 M
0 63 V
0 2826 R
0 -63 V
stroke
LTb
2350 374 M
0 31 V
0 2858 R
0 -31 V
2689 374 M
0 31 V
0 2858 R
0 -31 V
2862 374 M
0 31 V
0 2858 R
0 -31 V
stroke
0.500 UL
LTa
LCa setrgbcolor
2944 374 M
0 2889 V
stroke
1.000 UL
LTb
LCb setrgbcolor
[] 0 setdash
2944 374 M
0 63 V
0 2826 R
0 -63 V
stroke
LTb
3200 374 M
0 31 V
0 2858 R
0 -31 V
3538 374 M
0 31 V
0 2858 R
0 -31 V
3711 374 M
0 31 V
0 2858 R
0 -31 V
stroke
0.500 UL
LTa
LCa setrgbcolor
3794 374 M
0 2889 V
stroke
1.000 UL
LTb
LCb setrgbcolor
[] 0 setdash
3794 374 M
0 63 V
0 2826 R
0 -63 V
stroke
LTb
4049 374 M
0 31 V
0 2858 R
0 -31 V
4387 374 M
0 31 V
0 2858 R
0 -31 V
4561 374 M
0 31 V
0 2858 R
0 -31 V
stroke
0.500 UL
LTa
LCa setrgbcolor
4643 374 M
0 2889 V
stroke
1.000 UL
LTb
LCb setrgbcolor
[] 0 setdash
4643 374 M
0 63 V
0 2826 R
0 -63 V
stroke
LTb
1.000 UL
LTb
396 3263 N
396 374 L
4247 0 V
0 2889 V
-4247 0 V
Z stroke
1.000 UP
1.000 UL
LTb
1.000 UL
LTb
528 437 N
0 880 V
1647 0 V
0 -880 V
528 437 L
Z stroke
2.000 UL
LTb
1.00 0.00 0.00 C LCb setrgbcolor
2.000 UL
LTb
1.00 0.00 0.00 C 1452 1207 M
591 0 V
396 2748 M
35 140 V
62 -140 V
27 300 V
49 -152 V
44 127 V
39 -80 V
35 -123 V
47 -53 V
42 -144 V
49 380 V
33 -50 V
49 -13 V
44 -213 V
39 134 V
42 -326 V
43 286 V
44 -151 V
39 181 V
44 114 V
43 -298 V
42 38 V
44 -144 V
41 111 V
42 -163 V
44 328 V
43 -59 V
42 -139 V
42 159 V
43 36 V
42 -63 V
43 77 V
42 -222 V
43 -134 V
42 30 V
42 39 V
43 245 V
42 -104 V
43 -230 V
42 -149 V
43 416 V
42 -352 V
43 190 V
42 -196 V
43 151 V
42 -142 V
43 118 V
42 192 V
43 -266 V
42 7 V
42 -90 V
43 -81 V
42 255 V
43 -36 V
42 -378 V
43 313 V
42 -365 V
43 387 V
42 -150 V
43 88 V
42 -139 V
43 189 V
42 -237 V
43 284 V
42 -142 V
43 -289 V
42 411 V
42 -92 V
43 -198 V
42 -791 V
43 803 V
42 -63 V
43 135 V
42 -217 V
43 174 V
42 -14 V
43 160 V
42 -607 V
43 399 V
42 58 V
43 104 V
42 -445 V
43 -197 V
42 603 V
42 62 V
43 -40 V
42 -675 V
43 241 V
42 401 V
43 -262 V
42 66 V
43 -118 V
42 105 V
43 -449 V
42 613 V
43 -276 V
42 253 V
43 -201 V
42 -59 V
43 -409 V
42 637 V
stroke
LTb
LCb setrgbcolor
[] 0 setdash
0.00 0.00 1.00 C LCb setrgbcolor
2.000 UL
LTb
0.00 0.00 1.00 C 1452 987 M
591 0 V
396 2618 M
35 104 V
62 -172 V
27 309 V
49 -238 V
44 -59 V
39 203 V
35 -74 V
47 -299 V
42 432 V
49 -22 V
33 -80 V
49 -264 V
44 32 V
39 -86 V
42 265 V
43 -261 V
44 0 V
39 118 V
44 -71 V
43 -384 V
42 396 V
44 -27 V
41 117 V
42 -295 V
44 201 V
43 -46 V
42 -94 V
42 56 V
43 -12 V
42 75 V
43 -113 V
42 -510 V
43 523 V
42 -149 V
42 -81 V
43 121 V
42 -26 V
43 -570 V
42 452 V
43 55 V
42 -89 V
43 -115 V
42 71 V
43 34 V
42 -109 V
43 -85 V
42 -461 V
43 661 V
42 -107 V
42 -232 V
43 55 V
42 -20 V
43 130 V
42 -313 V
43 327 V
42 -121 V
43 54 V
42 -86 V
43 97 V
42 -48 V
43 -228 V
42 42 V
43 -214 V
42 238 V
43 -50 V
42 -60 V
42 -204 V
43 245 V
42 20 V
43 -703 V
42 499 V
43 225 V
42 -541 V
43 169 V
42 -234 V
43 377 V
42 -229 V
43 180 V
42 -166 V
43 29 V
42 -130 V
43 93 V
42 -15 V
42 56 V
43 67 V
42 -687 V
43 515 V
42 43 V
43 -62 V
42 -41 V
43 -44 V
42 27 V
43 -506 V
42 472 V
43 -89 V
42 114 V
43 49 V
42 -301 V
43 174 V
42 -238 V
stroke
LTb
LCb setrgbcolor
[] 0 setdash
0.00 0.50 0.00 C LCb setrgbcolor
2.000 UL
LTb
0.00 0.50 0.00 C 1452 767 M
591 0 V
396 2517 M
35 339 V
62 77 V
27 15 V
49 -836 V
44 12 V
39 -330 V
35 1004 V
47 -99 V
42 72 V
49 -152 V
33 -602 V
49 474 V
44 -51 V
39 -189 V
42 208 V
43 159 V
44 -428 V
39 -193 V
44 595 V
43 -255 V
42 90 V
44 -748 V
41 631 V
42 86 V
44 48 V
43 58 V
42 -403 V
42 287 V
43 -66 V
42 97 V
43 -62 V
42 -67 V
43 83 V
42 -252 V
42 -85 V
43 -121 V
42 -6 V
43 156 V
42 58 V
43 -110 V
42 86 V
43 -129 V
42 49 V
43 -156 V
42 172 V
43 34 V
42 -498 V
43 363 V
42 -253 V
42 -66 V
43 414 V
42 -279 V
43 -213 V
42 126 V
43 187 V
42 -5 V
43 -316 V
42 -280 V
43 260 V
42 -176 V
43 311 V
42 -238 V
43 74 V
42 154 V
43 -86 V
42 33 V
42 -120 V
43 166 V
42 -229 V
43 -22 V
42 227 V
43 -86 V
42 -121 V
43 -220 V
42 366 V
43 -136 V
42 -336 V
43 128 V
42 -81 V
43 45 V
42 196 V
43 -470 V
42 284 V
42 -179 V
43 244 V
42 -283 V
43 174 V
42 23 V
43 -730 V
42 303 V
43 268 V
42 166 V
43 -256 V
42 136 V
43 -93 V
42 -518 V
43 605 V
42 -299 V
43 -43 V
42 -93 V
stroke
1.000 UL
LTb
LCb setrgbcolor
[] 0 setdash
0.00 0.00 0.00 C LCb setrgbcolor
1.000 UL
LTb
0.00 0.00 0.00 C 1452 547 M
591 0 V
396 2892 M
43 -10 V
43 -10 V
43 -11 V
43 -10 V
42 -11 V
43 -10 V
43 -11 V
43 -10 V
43 -10 V
43 -11 V
43 -10 V
43 -11 V
43 -10 V
43 -11 V
42 -10 V
43 -10 V
43 -11 V
43 -10 V
43 -11 V
43 -10 V
43 -10 V
43 -11 V
43 -10 V
43 -11 V
42 -10 V
43 -11 V
43 -10 V
43 -10 V
43 -11 V
43 -10 V
43 -11 V
43 -10 V
43 -11 V
43 -10 V
42 -10 V
43 -11 V
43 -10 V
43 -11 V
43 -10 V
43 -10 V
43 -11 V
43 -10 V
43 -11 V
43 -10 V
42 -11 V
43 -10 V
43 -10 V
43 -11 V
43 -10 V
43 -11 V
43 -10 V
43 -11 V
43 -10 V
43 -10 V
42 -11 V
43 -10 V
43 -11 V
43 -10 V
43 -10 V
43 -11 V
43 -10 V
43 -11 V
43 -10 V
43 -11 V
42 -10 V
43 -10 V
43 -11 V
43 -10 V
43 -11 V
43 -10 V
43 -11 V
43 -10 V
43 -10 V
43 -11 V
42 -10 V
43 -11 V
43 -10 V
43 -11 V
43 -10 V
43 -10 V
43 -11 V
43 -10 V
43 -11 V
43 -10 V
42 -10 V
43 -11 V
43 -10 V
43 -11 V
43 -10 V
43 -11 V
43 -10 V
43 -10 V
43 -11 V
43 -10 V
42 -11 V
43 -10 V
43 -11 V
43 -10 V
43 -10 V
stroke
2.000 UL
LTb
LCb setrgbcolor
[] 0 setdash
1.000 UL
LTb
396 3263 N
396 374 L
4247 0 V
0 2889 V
-4247 0 V
Z stroke
1.000 UP
1.000 UL
LTb
stroke
grestore
end
showpage
%%Trailer
