10 0.159536 0.145214 0.121869
11 0.0988192 0.171842 0.182322
13 0.17481 0.145404 0.164938
14 0.213743 0.103724 0.101914
16 0.0847542 0.0517954 0.140365
18 0.0688438 0.0864226 0.12656
20 0.23595 0.0726212 0.0758932
22 0.0475518 0.0801295 0.0799961
25 0.0100434 0.079847 0.0528863
28 0.106546 0.0518723 0.0659564
32 0.315922 0.0258977 0.0307115
35 0.0763816 0.0609015 0.0069787
40 0.032142 0.0362707 0.0255613
45 0.0734475 0.0530396 0.034965
50 0.00267732 0.0383709 0.0379207
56 0.0479501 0.0259076 0.0436026
63 0.0562966 0.0261357 0.0215366
71 0.154413 0.0321553 0.0165
79 0.0994004 0.0283286 0.0172991
89 0.0577264 0.0281632 0.0220822
100 0.00956435 0.0191829 0.00841269
112 0.00314615 0.0129501 0.0136355
126 0.029378 0.0129539 0.0161505
141 0.0089835 0.0186959 0.00770796
158 0.0521796 0.0138609 0.0143342
178 0.000867549 0.0136155 0.00725244
200 0.0148747 0.00958454 0.0041465
224 0.00518764 0.00647458 0.00563988
251 0.0113704 0.00935526 0.00218364
282 0.0205812 0.00889144 0.00282652
316 0.0340145 0.00692905 0.00345137
355 0.0259968 0.00849253 0.00324065
398 0.00336324 0.00643076 0.00154145
447 0.0102862 0.00508338 0.00208783
501 0.0129739 0.00535496 0.000494319
562 0.00867694 0.00474439 0.000694575
631 0.0330626 0.00469676 0.000192907
708 0.0418427 0.00354062 0.0020234
794 0.0109044 0.00362676 0.000480176
891 0.00550938 0.00332465 0.000802018
1000 0.0214836 0.00203362 0.000204372
1122 0.0293378 0.00244661 0.000387149
1259 0.0112432 0.00275624 0.000962759
1413 0.0201828 0.00230845 0.00103309
1585 0.0183881 0.00199532 0.000103578
1778 0.022282 0.00160059 0.000534496
1995 0.0136778 0.00161151 7.48179e-05
2239 0.0192019 0.00125722 0.000396014
2512 0.0124115 0.00101814 0.00043557
2818 0.00957142 0.000915375 0.000173799
3162 0.00755682 0.00107165 0.000367436
3548 0.00840211 0.000826591 0.000208954
3981 0.0156415 0.000837792 0.000526241
4467 0.00583571 0.000842317 8.47448e-06
5012 0.00986028 0.000662374 3.78671e-05
5623 0.00484578 0.000596089 4.97282e-05
6310 0.00109678 0.000577332 0.000114741
7079 0.00752331 0.000546287 0.000267943
7943 0.000589986 0.000391407 0.00027548
8913 0.00268536 0.000426954 0.000254224
10000 0.00080489 0.000283426 0.000158881
11220 0.0111125 0.000309784 7.29351e-05
12589 0.000735541 0.000335377 8.04748e-05
14125 0.00511413 0.000302195 6.56495e-05
15849 0.00218618 0.000224719 0.000122633
17783 0.00111339 0.000227915 9.23502e-05
19953 0.000804223 0.000184276 8.68793e-05
22387 0.00340715 0.000192916 7.97945e-05
25119 0.00104467 0.000142254 4.72702e-05
28184 0.00124354 0.000117856 9.00376e-05
31623 0.00282637 0.000119689 2.46212e-05
35481 0.00537105 0.000128729 3.98392e-05
39811 0.00489154 0.00010411 5.10338e-06
44668 0.00516004 8.25349e-05 3.10173e-06
50119 0.00132644 8.16958e-05 9.68559e-06
56234 0.00163445 7.78179e-05 1.92029e-05
63096 0.00378104 5.43859e-05 3.43145e-05
70795 0.00228435 6.6648e-05 8.46905e-06
79433 0.000612671 6.04697e-05 2.58377e-05
89125 0.00169604 5.21898e-05 2.08759e-05
100000 0.00160687 3.48369e-05 2.00536e-05
112202 0.00176564 4.17584e-05 1.16937e-05
125893 0.000258676 3.50437e-05 2.67842e-05
141254 0.00114779 2.89637e-05 2.93487e-06
158489 0.000435475 3.21496e-05 1.10416e-05
177828 0.00208824 2.66065e-05 1.51812e-05
199526 0.000332044 2.33907e-05 6.42653e-06
223872 0.000684807 1.59965e-05 4.79964e-06
251189 0.000979615 2.09553e-05 1.8416e-06
281838 0.000427951 1.64984e-05 2.98675e-07
316228 0.000122714 1.4881e-05 4.87107e-06
354813 0.00092635 1.32416e-05 3.17966e-06
398107 0.000578861 1.28413e-05 6.49348e-07
446684 0.000240474 1.02689e-05 4.53071e-06
501187 0.000756397 9.97937e-06 6.38012e-07
562341 0.000598059 9.95315e-06 5.55424e-07
630957 0.000121759 8.43501e-06 2.23928e-06
707946 1.08576e-05 7.92903e-06 1.9194e-06
794328 0.000170954 5.19257e-06 6.62511e-07
891251 0.000479682 6.47266e-06 1.3661e-06
1000000 0.00100924 3.5052e-06 9.73551e-07
