\relax 
\@writefile{lof}{\contentsline {figure}{\numberline {1}{\ignorespaces Sampling of 500 points in the x,y-plane between 0 and 1 using (a) the rand() function from the C library used in the plain Monte-Carlo, (b) the Halton sequence and (c) the lattice sequence.}}{1}}
\newlabel{fig:dist}{{1}{1}}
\@writefile{lof}{\contentsline {figure}{\numberline {2}{\ignorespaces $\delta I_{1D} = \frac  {1}{\pi } \DOTSI \intop \ilimits@ _{-2}^2 atan(e^x) dx - 1$ plotted as a function of the number of points $N$ used in the Monte-Carlo integration, for different sampling methods. A line $\propto 1/\sqrt  {N}$ , where the proportionality constant is chosen so that the line coincides with the plain Monte-Carlo, is also plotted.}}{2}}
\newlabel{fig:1D}{{2}{2}}
\@writefile{lof}{\contentsline {figure}{\numberline {3}{\ignorespaces $\delta I_{2D} = \frac  {1}{\pi } \DOTSI \intop \ilimits@ _{0}^{2\pi } \DOTSI \intop \ilimits@ _{0}^1 r \tmspace  +\thinmuskip {.1667em}dr d \theta - 1$ plotted as a function of the number of points $N$ used in the Monte-Carlo integration, for different sampling methods. A line $\propto 1/\sqrt  {N}$, where the proportionality constant is chosen so that the line coincides with the plain Monte-Carlo, is also plotted.}}{2}}
\newlabel{fig:2D}{{3}{2}}
\@writefile{lof}{\contentsline {figure}{\numberline {4}{\ignorespaces $\delta I_{3D} = \frac  {1}{8} \DOTSI \intop \ilimits@ _{0}^{\pi } \DOTSI \intop \ilimits@ _{0}^{\pi } \DOTSI \intop \ilimits@ _{0}^{\pi } \qopname  \relax o{sin}x \qopname  \relax o{sin}y \qopname  \relax o{sin}z \tmspace  +\thinmuskip {.1667em}dx dy dz - 1$ plotted as a function of the number of points $N$ used in the Monte-Carlo integration, for different sampling methods. A line $\propto 1/\sqrt  {N}$, where the proportionality constant is chosen so that the line coincides with the plain Monte-Carlo, is also plotted.}}{2}}
\newlabel{fig:3D}{{4}{2}}
