\relax 
\citation{Wiki}
\citation{Wiki}
\bibcite{Wiki}{1}
\@writefile{lof}{\contentsline {figure}{\numberline {1}{\ignorespaces Plot of the arccotangent found via root finding (red line), and from the math.h header file (black points).}}{1}}
\newlabel{fig:scattering}{{1}{1}}
