
Problem 1

Finding the root of the gradient of the Rosenbrok equation.
Starting with initial guess (0,0)
Gradient calculated at:
(0,0).
(0,0).
(0,0).
(0,0).
(0,0).
(0.00175315,-0.000142979).
(0.0052648,6.73861e-05).
(0.012299,-8.71243e-05).
(0.0263627,0.000390136).
(0.0544732,0.0017529).
(0.110472,0.00744622).
(0.110472,0.00744622).
(0.110472,0.00744622).
(0.137181,0.0163167).
(0.137181,0.0163167).
(0.163627,0.0259426).
(0.190829,0.0331605).
(0.243178,0.0538445).
(0.243178,0.0538445).
(0.243178,0.0538445).
(0.267434,0.0681172).
(0.267434,0.0681172).
(0.291332,0.0829807).
(0.316243,0.0960768).
(0.363337,0.126906).
(0.38482,0.145086).
(0.38482,0.145086).
(0.40705,0.162347).
(0.450124,0.198579).
(0.450124,0.198579).
(0.450124,0.198579).
(0.470296,0.218205).
(0.470296,0.218205).
(0.490047,0.238254).
(0.510598,0.257482).
(0.510598,0.257482).
(0.529256,0.278552).
(0.549161,0.298448).
(0.586336,0.340712).
(0.586336,0.340712).
(0.586336,0.340712).
(0.604012,0.362612).
(0.604012,0.362612).
(0.621401,0.384741).
(0.639369,0.406402).
(0.639369,0.406402).
(0.655953,0.429141).
(0.655953,0.429141).
(0.664591,0.440248).
(0.681544,0.462713).
(0.681544,0.462713).
(0.681544,0.462713).
(0.689714,0.47417).
(0.689714,0.47417).
(0.697851,0.485651).
(0.697851,0.485651).
(0.705992,0.497129).
(0.705992,0.497129).
(0.714071,0.50865).
(0.714071,0.50865).
(0.722089,0.520214).
(0.722089,0.520214).
(0.730048,0.531819).
(0.730048,0.531819).
(0.737949,0.543463).
(0.737949,0.543463).
(0.745793,0.555146).
(0.745793,0.555146).
(0.75358,0.566867).
(0.75358,0.566867).
(0.761313,0.578623).
(0.761313,0.578623).
(0.768991,0.590416).
(0.768991,0.590416).
(0.776616,0.602242).
(0.776616,0.602242).
(0.784189,0.614103).
(0.784189,0.614103).
(0.791711,0.625996).
(0.791711,0.625996).
(0.799182,0.63792).
(0.799182,0.63792).
(0.806604,0.649876).
(0.814077,0.661799).
(0.828693,0.685849).
(0.828693,0.685849).
(0.828693,0.685849).
(0.835891,0.697941).
(0.835891,0.697941).
(0.843029,0.710068).
(0.843029,0.710068).
(0.850169,0.722194).
(0.850169,0.722194).
(0.857265,0.734346).
(0.857265,0.734346).
(0.864318,0.746522).
(0.864318,0.746522).
(0.871328,0.758724).
(0.871328,0.758724).
(0.878296,0.770949).
(0.878296,0.770949).
(0.885223,0.783198).
(0.885223,0.783198).
(0.892109,0.795469).
(0.892109,0.795469).
(0.898956,0.807763).
(0.898956,0.807763).
(0.905763,0.820079).
(0.905763,0.820079).
(0.912531,0.832417).
(0.919331,0.844736).
(0.919331,0.844736).
(0.92595,0.857154).
(0.92595,0.857154).
(0.929305,0.863338).
(0.93597,0.875732).
(0.93597,0.875732).
(0.93597,0.875732).
(0.939262,0.88195).
(0.939262,0.88195).
(0.942548,0.888171).
(0.942548,0.888171).
(0.945835,0.894392).
(0.945835,0.894392).
(0.949113,0.900618).
(0.949113,0.900618).
(0.952382,0.906848).
(0.952382,0.906848).
(0.955643,0.913083).
(0.955643,0.913083).
(0.958894,0.919322).
(0.958894,0.919322).
(0.962137,0.925566).
(0.962137,0.925566).
(0.965372,0.931814).
(0.965372,0.931814).
(0.968598,0.938067).
(0.968598,0.938067).
(0.971816,0.944324).
(0.971816,0.944324).
(0.975025,0.950585).
(0.975025,0.950585).
(0.978226,0.956851).
(0.978226,0.956851).
(0.981419,0.963121).
(0.981419,0.963121).
(0.984603,0.969395).
(0.984603,0.969395).
(0.98778,0.975673).
(0.98778,0.975673).
(0.990948,0.981955).
(0.990948,0.981955).
(0.994109,0.988241).
(0.994109,0.988241).
(0.997261,0.994531).
(0.997261,0.994531).
(0.998838,0.997676).
(0.999951,0.999898).
(0.999964,0.999929).
(0.999964,0.999929).
(0.999979,0.999959).
(0.999996,0.999991).
(1,1).
(1,1).
(1,1).
(1,1).
(1,1).
Root finder converged after 167 iterations.
Exstremum found at (1,1).


Problem 2

Root finder converged.
The energy was found to be E = -0.499975

